<svg width="102" height="81" viewBox="0 0 102 81" fill="none" xmlns="http://www.w3.org/2000/svg">
<rect width="15.3735" height="20" transform="translate(0 60.0537)" fill="#8591B0"/>
<rect width="15.3735" height="20" transform="translate(28.6582 60.0537)" fill="#8591B0"/>
<rect width="15.3735" height="20" transform="translate(57.3164 60.0537)" fill="#8591B0"/>
<rect width="15.3735" height="20" transform="translate(85.9736 60.0537)" fill="#8591B0"/>
<rect width="15.3735" height="20" transform="translate(0 29.375)" fill="#8591B0"/>
<rect width="15.3735" height="20" transform="translate(28.6582 29.375)" fill="#8591B0"/>
<rect width="15.3735" height="20" transform="translate(57.3164 29.375)" fill="#8591B0"/>
<rect width="15.3735" height="20" transform="translate(85.9736 29.375)" fill="#8591B0"/>
<rect width="15.3735" height="20" fill="#8591B0"/>
<rect width="15.3735" height="20" transform="translate(28.6582)" fill="#8591B0"/>
<rect width="15.3735" height="20" transform="translate(57.3164)" fill="#8591B0"/>
<rect width="15.3735" height="20" transform="translate(85.9736)" fill="#8591B0"/>
</svg>
