<?xml version="1.0" encoding="UTF-8"?>
<svg width="249px" height="46px" viewBox="0 0 249 46" version="1.1" xmlns="http://www.w3.org/2000/svg" xmlns:xlink="http://www.w3.org/1999/xlink">
    <!-- Generator: sketchtool 51 (57462) - http://www.bohemiancoding.com/sketch -->
    <title>470FF787-CBBA-4854-B9B3-4F954685B4C0</title>
    <desc>Created with sketchtool.</desc>
    <defs>
        <polygon id="path-1" points="0 0 9.57894737 0 9.57894737 13 0 13"></polygon>
        <polygon id="path-3" points="0 0 9.57894737 0 9.57894737 13 0 13"></polygon>
        <polygon id="path-5" points="0 0 9.57894737 0 9.57894737 13 0 13"></polygon>
        <polygon id="path-7" points="0 0 9.57894737 0 9.57894737 13 0 13"></polygon>
        <polygon id="path-9" points="0 0 9.57894737 0 9.57894737 13 0 13"></polygon>
        <polygon id="path-11" points="0 0 9.57894737 0 9.57894737 13 0 13"></polygon>
        <polygon id="path-13" points="0 0 9.57894737 0 9.57894737 13 0 13"></polygon>
        <polygon id="path-15" points="0 0 9.57894737 0 9.57894737 13 0 13"></polygon>
        <polygon id="path-17" points="0 0 9.57894737 0 9.57894737 13 0 13"></polygon>
        <polygon id="path-19" points="0 0 9.57894737 0 9.57894737 13 0 13"></polygon>
        <polygon id="path-21" points="0 0 9.57894737 0 9.57894737 13 0 13"></polygon>
        <polygon id="path-23" points="0 0 9.57894737 0 9.57894737 13 0 13"></polygon>
        <polygon id="path-25" points="0 0 9.57894737 0 9.57894737 13 0 13"></polygon>
        <polygon id="path-27" points="0 0 9.57894737 0 9.57894737 13 0 13"></polygon>
        <polygon id="path-29" points="0 0 9.57894737 0 9.57894737 13 0 13"></polygon>
        <polygon id="path-31" points="0 0 9.57894737 0 9.57894737 13 0 13"></polygon>
        <polygon id="path-33" points="0 0 9.57894737 0 9.57894737 13 0 13"></polygon>
        <polygon id="path-35" points="0 0 9.57894737 0 9.57894737 13 0 13"></polygon>
        <polygon id="path-37" points="0 0 9.57894737 0 9.57894737 13 0 13"></polygon>
        <polygon id="path-39" points="0 0 9.57894737 0 9.57894737 13 0 13"></polygon>
        <polygon id="path-41" points="0 0 9.57894737 0 9.57894737 13 0 13"></polygon>
        <polygon id="path-43" points="0 0 9.57894737 0 9.57894737 13 0 13"></polygon>
        <polygon id="path-45" points="0 0 9.57894737 0 9.57894737 13 0 13"></polygon>
        <polygon id="path-47" points="0 0 9.57894737 0 9.57894737 13 0 13"></polygon>
        <polygon id="path-49" points="0 0 9.57894737 0 9.57894737 13 0 13"></polygon>
        <polygon id="path-51" points="0 0 9.57894737 0 9.57894737 13 0 13"></polygon>
        <polygon id="path-53" points="0 0 9.57894737 0 9.57894737 13 0 13"></polygon>
        <polygon id="path-55" points="0 0 9.57894737 0 9.57894737 13 0 13"></polygon>
        <polygon id="path-57" points="0 0 9.57894737 0 9.57894737 13 0 13"></polygon>
        <polygon id="path-59" points="0 0 9.57894737 0 9.57894737 13 0 13"></polygon>
        <polygon id="path-61" points="0 0 9.57894737 0 9.57894737 13 0 13"></polygon>
        <polygon id="path-63" points="0 0 9.57894737 0 9.57894737 13 0 13"></polygon>
        <polygon id="path-65" points="0 0 9.57894737 0 9.57894737 13 0 13"></polygon>
        <polygon id="path-67" points="0 0 9.57894737 0 9.57894737 13 0 13"></polygon>
        <polygon id="path-69" points="0 0 9.57894737 0 9.57894737 13 0 13"></polygon>
        <polygon id="path-71" points="0 0 9.57894737 0 9.57894737 13 0 13"></polygon>
        <polygon id="path-73" points="0 0 9.57894737 0 9.57894737 13 0 13"></polygon>
    </defs>
    <g id="Page-1" stroke="none" stroke-width="1" fill="none" fill-rule="evenodd">
        <g id="сильные-наставники" transform="translate(-904.000000, -339.000000)">
            <g id="Group-5" transform="translate(904.000000, 339.000000)">
                <g id="Group-8">
                    <g id="man-user" opacity="0.699999988" transform="translate(46.000000, 0.000000)">
                        <mask id="mask-2" fill="white">
                            <use xlink:href="#path-1"></use>
                        </mask>
                        <g id="Clip-2"></g>
                        <path d="M4.44736842,6.15789474 C5.76978177,6.15789474 6.84210526,4.77947569 6.84210526,3.07894737 C6.84210526,1.37855395 6.48997431,0 4.44736842,0 C2.4045926,0 2.05263158,1.37855395 2.05263158,3.07894737 C2.05263158,4.77947569 3.12482762,6.15789474 4.44736842,6.15789474 Z" id="Fill-1" fill="#F25C31" mask="url(#mask-2)"></path>
                        <path d="M9.57368414,11.1553886 C9.5267649,8.21181223 9.13966992,7.37308846 6.17822469,6.84210526 C6.17822469,6.84210526 5.76121477,7.36978182 4.78963113,7.36978182 C3.81791254,7.36978182 3.40090261,6.84210526 3.40090261,6.84210526 C0.471801519,7.36732419 0.0611344645,8.19367042 0.00719758228,11.0597196 C0.00278906314,11.2937758 0.000674773339,11.3060193 0,11.2787619 C0.000179939557,11.3297466 0.000359879114,11.4239858 0.000359879114,11.5880664 C0.000359879114,11.5880664 0.705318079,13 4.78963113,13 C8.87376424,13 9.57876743,11.5880664 9.57876743,11.5880664 C9.57876743,11.4826562 9.57894737,11.4093293 9.57894737,11.359417 C9.5782726,11.3761736 9.57665314,11.3435541 9.57368414,11.1553886 Z" id="Fill-3" fill="#F25C31" mask="url(#mask-2)"></path>
                    </g>
                    <g id="man-user" opacity="0.800000012" transform="translate(66.000000, 0.000000)">
                        <mask id="mask-4" fill="white">
                            <use xlink:href="#path-3"></use>
                        </mask>
                        <g id="Clip-2"></g>
                        <path d="M4.44736842,6.15789474 C5.76978177,6.15789474 6.84210526,4.77947569 6.84210526,3.07894737 C6.84210526,1.37855395 6.48997431,0 4.44736842,0 C2.4045926,0 2.05263158,1.37855395 2.05263158,3.07894737 C2.05263158,4.77947569 3.12482762,6.15789474 4.44736842,6.15789474 Z" id="Fill-1" fill="#F25C31" mask="url(#mask-4)"></path>
                        <path d="M9.57368414,11.1553886 C9.5267649,8.21181223 9.13966992,7.37308846 6.17822469,6.84210526 C6.17822469,6.84210526 5.76121477,7.36978182 4.78963113,7.36978182 C3.81791254,7.36978182 3.40090261,6.84210526 3.40090261,6.84210526 C0.471801519,7.36732419 0.0611344645,8.19367042 0.00719758228,11.0597196 C0.00278906314,11.2937758 0.000674773339,11.3060193 0,11.2787619 C0.000179939557,11.3297466 0.000359879114,11.4239858 0.000359879114,11.5880664 C0.000359879114,11.5880664 0.705318079,13 4.78963113,13 C8.87376424,13 9.57876743,11.5880664 9.57876743,11.5880664 C9.57876743,11.4826562 9.57894737,11.4093293 9.57894737,11.359417 C9.5782726,11.3761736 9.57665314,11.3435541 9.57368414,11.1553886 Z" id="Fill-3" fill="#F25C31" mask="url(#mask-4)"></path>
                    </g>
                    <g id="man-user" transform="translate(86.000000, 0.000000)">
                        <mask id="mask-6" fill="white">
                            <use xlink:href="#path-5"></use>
                        </mask>
                        <g id="Clip-2"></g>
                        <path d="M4.44736842,6.15789474 C5.76978177,6.15789474 6.84210526,4.77947569 6.84210526,3.07894737 C6.84210526,1.37855395 6.48997431,0 4.44736842,0 C2.4045926,0 2.05263158,1.37855395 2.05263158,3.07894737 C2.05263158,4.77947569 3.12482762,6.15789474 4.44736842,6.15789474 Z" id="Fill-1" fill="#F25C31" mask="url(#mask-6)"></path>
                        <path d="M9.57368414,11.1553886 C9.5267649,8.21181223 9.13966992,7.37308846 6.17822469,6.84210526 C6.17822469,6.84210526 5.76121477,7.36978182 4.78963113,7.36978182 C3.81791254,7.36978182 3.40090261,6.84210526 3.40090261,6.84210526 C0.471801519,7.36732419 0.0611344645,8.19367042 0.00719758228,11.0597196 C0.00278906314,11.2937758 0.000674773339,11.3060193 0,11.2787619 C0.000179939557,11.3297466 0.000359879114,11.4239858 0.000359879114,11.5880664 C0.000359879114,11.5880664 0.705318079,13 4.78963113,13 C8.87376424,13 9.57876743,11.5880664 9.57876743,11.5880664 C9.57876743,11.4826562 9.57894737,11.4093293 9.57894737,11.359417 C9.5782726,11.3761736 9.57665314,11.3435541 9.57368414,11.1553886 Z" id="Fill-3" fill="#F25C31" mask="url(#mask-6)"></path>
                    </g>
                    <g id="man-user" transform="translate(106.000000, 0.000000)">
                        <mask id="mask-8" fill="white">
                            <use xlink:href="#path-7"></use>
                        </mask>
                        <g id="Clip-2"></g>
                        <path d="M4.44736842,6.15789474 C5.76978177,6.15789474 6.84210526,4.77947569 6.84210526,3.07894737 C6.84210526,1.37855395 6.48997431,0 4.44736842,0 C2.4045926,0 2.05263158,1.37855395 2.05263158,3.07894737 C2.05263158,4.77947569 3.12482762,6.15789474 4.44736842,6.15789474 Z" id="Fill-1" fill="#F25C31" mask="url(#mask-8)"></path>
                        <path d="M9.57368414,11.1553886 C9.5267649,8.21181223 9.13966992,7.37308846 6.17822469,6.84210526 C6.17822469,6.84210526 5.76121477,7.36978182 4.78963113,7.36978182 C3.81791254,7.36978182 3.40090261,6.84210526 3.40090261,6.84210526 C0.471801519,7.36732419 0.0611344645,8.19367042 0.00719758228,11.0597196 C0.00278906314,11.2937758 0.000674773339,11.3060193 0,11.2787619 C0.000179939557,11.3297466 0.000359879114,11.4239858 0.000359879114,11.5880664 C0.000359879114,11.5880664 0.705318079,13 4.78963113,13 C8.87376424,13 9.57876743,11.5880664 9.57876743,11.5880664 C9.57876743,11.4826562 9.57894737,11.4093293 9.57894737,11.359417 C9.5782726,11.3761736 9.57665314,11.3435541 9.57368414,11.1553886 Z" id="Fill-3" fill="#F25C31" mask="url(#mask-8)"></path>
                    </g>
                    <g id="man-user" transform="translate(126.000000, 0.000000)">
                        <mask id="mask-10" fill="white">
                            <use xlink:href="#path-9"></use>
                        </mask>
                        <g id="Clip-2"></g>
                        <path d="M4.44736842,6.15789474 C5.76978177,6.15789474 6.84210526,4.77947569 6.84210526,3.07894737 C6.84210526,1.37855395 6.48997431,0 4.44736842,0 C2.4045926,0 2.05263158,1.37855395 2.05263158,3.07894737 C2.05263158,4.77947569 3.12482762,6.15789474 4.44736842,6.15789474 Z" id="Fill-1" fill="#F25C31" mask="url(#mask-10)"></path>
                        <path d="M9.57368414,11.1553886 C9.5267649,8.21181223 9.13966992,7.37308846 6.17822469,6.84210526 C6.17822469,6.84210526 5.76121477,7.36978182 4.78963113,7.36978182 C3.81791254,7.36978182 3.40090261,6.84210526 3.40090261,6.84210526 C0.471801519,7.36732419 0.0611344645,8.19367042 0.00719758228,11.0597196 C0.00278906314,11.2937758 0.000674773339,11.3060193 0,11.2787619 C0.000179939557,11.3297466 0.000359879114,11.4239858 0.000359879114,11.5880664 C0.000359879114,11.5880664 0.705318079,13 4.78963113,13 C8.87376424,13 9.57876743,11.5880664 9.57876743,11.5880664 C9.57876743,11.4826562 9.57894737,11.4093293 9.57894737,11.359417 C9.5782726,11.3761736 9.57665314,11.3435541 9.57368414,11.1553886 Z" id="Fill-3" fill="#F25C31" mask="url(#mask-10)"></path>
                    </g>
                    <g id="man-user" transform="translate(146.000000, 0.000000)">
                        <mask id="mask-12" fill="white">
                            <use xlink:href="#path-11"></use>
                        </mask>
                        <g id="Clip-2"></g>
                        <path d="M4.44736842,6.15789474 C5.76978177,6.15789474 6.84210526,4.77947569 6.84210526,3.07894737 C6.84210526,1.37855395 6.48997431,0 4.44736842,0 C2.4045926,0 2.05263158,1.37855395 2.05263158,3.07894737 C2.05263158,4.77947569 3.12482762,6.15789474 4.44736842,6.15789474 Z" id="Fill-1" fill="#F25C31" mask="url(#mask-12)"></path>
                        <path d="M9.57368414,11.1553886 C9.5267649,8.21181223 9.13966992,7.37308846 6.17822469,6.84210526 C6.17822469,6.84210526 5.76121477,7.36978182 4.78963113,7.36978182 C3.81791254,7.36978182 3.40090261,6.84210526 3.40090261,6.84210526 C0.471801519,7.36732419 0.0611344645,8.19367042 0.00719758228,11.0597196 C0.00278906314,11.2937758 0.000674773339,11.3060193 0,11.2787619 C0.000179939557,11.3297466 0.000359879114,11.4239858 0.000359879114,11.5880664 C0.000359879114,11.5880664 0.705318079,13 4.78963113,13 C8.87376424,13 9.57876743,11.5880664 9.57876743,11.5880664 C9.57876743,11.4826562 9.57894737,11.4093293 9.57894737,11.359417 C9.5782726,11.3761736 9.57665314,11.3435541 9.57368414,11.1553886 Z" id="Fill-3" fill="#F25C31" mask="url(#mask-12)"></path>
                    </g>
                    <g id="man-user" transform="translate(166.000000, 0.000000)">
                        <mask id="mask-14" fill="white">
                            <use xlink:href="#path-13"></use>
                        </mask>
                        <g id="Clip-2"></g>
                        <path d="M4.44736842,6.15789474 C5.76978177,6.15789474 6.84210526,4.77947569 6.84210526,3.07894737 C6.84210526,1.37855395 6.48997431,0 4.44736842,0 C2.4045926,0 2.05263158,1.37855395 2.05263158,3.07894737 C2.05263158,4.77947569 3.12482762,6.15789474 4.44736842,6.15789474 Z" id="Fill-1" fill="#F25C31" mask="url(#mask-14)"></path>
                        <path d="M9.57368414,11.1553886 C9.5267649,8.21181223 9.13966992,7.37308846 6.17822469,6.84210526 C6.17822469,6.84210526 5.76121477,7.36978182 4.78963113,7.36978182 C3.81791254,7.36978182 3.40090261,6.84210526 3.40090261,6.84210526 C0.471801519,7.36732419 0.0611344645,8.19367042 0.00719758228,11.0597196 C0.00278906314,11.2937758 0.000674773339,11.3060193 0,11.2787619 C0.000179939557,11.3297466 0.000359879114,11.4239858 0.000359879114,11.5880664 C0.000359879114,11.5880664 0.705318079,13 4.78963113,13 C8.87376424,13 9.57876743,11.5880664 9.57876743,11.5880664 C9.57876743,11.4826562 9.57894737,11.4093293 9.57894737,11.359417 C9.5782726,11.3761736 9.57665314,11.3435541 9.57368414,11.1553886 Z" id="Fill-3" fill="#F25C31" mask="url(#mask-14)"></path>
                    </g>
                    <g id="man-user" transform="translate(186.000000, 0.000000)">
                        <mask id="mask-16" fill="white">
                            <use xlink:href="#path-15"></use>
                        </mask>
                        <g id="Clip-2"></g>
                        <path d="M4.44736842,6.15789474 C5.76978177,6.15789474 6.84210526,4.77947569 6.84210526,3.07894737 C6.84210526,1.37855395 6.48997431,0 4.44736842,0 C2.4045926,0 2.05263158,1.37855395 2.05263158,3.07894737 C2.05263158,4.77947569 3.12482762,6.15789474 4.44736842,6.15789474 Z" id="Fill-1" fill="#F25C31" mask="url(#mask-16)"></path>
                        <path d="M9.57368414,11.1553886 C9.5267649,8.21181223 9.13966992,7.37308846 6.17822469,6.84210526 C6.17822469,6.84210526 5.76121477,7.36978182 4.78963113,7.36978182 C3.81791254,7.36978182 3.40090261,6.84210526 3.40090261,6.84210526 C0.471801519,7.36732419 0.0611344645,8.19367042 0.00719758228,11.0597196 C0.00278906314,11.2937758 0.000674773339,11.3060193 0,11.2787619 C0.000179939557,11.3297466 0.000359879114,11.4239858 0.000359879114,11.5880664 C0.000359879114,11.5880664 0.705318079,13 4.78963113,13 C8.87376424,13 9.57876743,11.5880664 9.57876743,11.5880664 C9.57876743,11.4826562 9.57894737,11.4093293 9.57894737,11.359417 C9.5782726,11.3761736 9.57665314,11.3435541 9.57368414,11.1553886 Z" id="Fill-3" fill="#F25C31" mask="url(#mask-16)"></path>
                    </g>
                    <g id="man-user" opacity="0.5" transform="translate(40.000000, 16.000000)">
                        <mask id="mask-18" fill="white">
                            <use xlink:href="#path-17"></use>
                        </mask>
                        <g id="Clip-2"></g>
                        <path d="M4.44736842,6.15789474 C5.76978177,6.15789474 6.84210526,4.77947569 6.84210526,3.07894737 C6.84210526,1.37855395 6.48997431,0 4.44736842,0 C2.4045926,0 2.05263158,1.37855395 2.05263158,3.07894737 C2.05263158,4.77947569 3.12482762,6.15789474 4.44736842,6.15789474 Z" id="Fill-1" fill="#F25C31" mask="url(#mask-18)"></path>
                        <path d="M9.57368414,11.1553886 C9.5267649,8.21181223 9.13966992,7.37308846 6.17822469,6.84210526 C6.17822469,6.84210526 5.76121477,7.36978182 4.78963113,7.36978182 C3.81791254,7.36978182 3.40090261,6.84210526 3.40090261,6.84210526 C0.471801519,7.36732419 0.0611344645,8.19367042 0.00719758228,11.0597196 C0.00278906314,11.2937758 0.000674773339,11.3060193 0,11.2787619 C0.000179939557,11.3297466 0.000359879114,11.4239858 0.000359879114,11.5880664 C0.000359879114,11.5880664 0.705318079,13 4.78963113,13 C8.87376424,13 9.57876743,11.5880664 9.57876743,11.5880664 C9.57876743,11.4826562 9.57894737,11.4093293 9.57894737,11.359417 C9.5782726,11.3761736 9.57665314,11.3435541 9.57368414,11.1553886 Z" id="Fill-3" fill="#F25C31" mask="url(#mask-18)"></path>
                    </g>
                    <g id="man-user" opacity="0.800000012" transform="translate(60.000000, 16.000000)">
                        <mask id="mask-20" fill="white">
                            <use xlink:href="#path-19"></use>
                        </mask>
                        <g id="Clip-2"></g>
                        <path d="M4.44736842,6.15789474 C5.76978177,6.15789474 6.84210526,4.77947569 6.84210526,3.07894737 C6.84210526,1.37855395 6.48997431,0 4.44736842,0 C2.4045926,0 2.05263158,1.37855395 2.05263158,3.07894737 C2.05263158,4.77947569 3.12482762,6.15789474 4.44736842,6.15789474 Z" id="Fill-1" fill="#F25C31" mask="url(#mask-20)"></path>
                        <path d="M9.57368414,11.1553886 C9.5267649,8.21181223 9.13966992,7.37308846 6.17822469,6.84210526 C6.17822469,6.84210526 5.76121477,7.36978182 4.78963113,7.36978182 C3.81791254,7.36978182 3.40090261,6.84210526 3.40090261,6.84210526 C0.471801519,7.36732419 0.0611344645,8.19367042 0.00719758228,11.0597196 C0.00278906314,11.2937758 0.000674773339,11.3060193 0,11.2787619 C0.000179939557,11.3297466 0.000359879114,11.4239858 0.000359879114,11.5880664 C0.000359879114,11.5880664 0.705318079,13 4.78963113,13 C8.87376424,13 9.57876743,11.5880664 9.57876743,11.5880664 C9.57876743,11.4826562 9.57894737,11.4093293 9.57894737,11.359417 C9.5782726,11.3761736 9.57665314,11.3435541 9.57368414,11.1553886 Z" id="Fill-3" fill="#F25C31" mask="url(#mask-20)"></path>
                    </g>
                    <g id="man-user" opacity="0.900000036" transform="translate(80.000000, 16.000000)">
                        <mask id="mask-22" fill="white">
                            <use xlink:href="#path-21"></use>
                        </mask>
                        <g id="Clip-2"></g>
                        <path d="M4.44736842,6.15789474 C5.76978177,6.15789474 6.84210526,4.77947569 6.84210526,3.07894737 C6.84210526,1.37855395 6.48997431,0 4.44736842,0 C2.4045926,0 2.05263158,1.37855395 2.05263158,3.07894737 C2.05263158,4.77947569 3.12482762,6.15789474 4.44736842,6.15789474 Z" id="Fill-1" fill="#F25C31" mask="url(#mask-22)"></path>
                        <path d="M9.57368414,11.1553886 C9.5267649,8.21181223 9.13966992,7.37308846 6.17822469,6.84210526 C6.17822469,6.84210526 5.76121477,7.36978182 4.78963113,7.36978182 C3.81791254,7.36978182 3.40090261,6.84210526 3.40090261,6.84210526 C0.471801519,7.36732419 0.0611344645,8.19367042 0.00719758228,11.0597196 C0.00278906314,11.2937758 0.000674773339,11.3060193 0,11.2787619 C0.000179939557,11.3297466 0.000359879114,11.4239858 0.000359879114,11.5880664 C0.000359879114,11.5880664 0.705318079,13 4.78963113,13 C8.87376424,13 9.57876743,11.5880664 9.57876743,11.5880664 C9.57876743,11.4826562 9.57894737,11.4093293 9.57894737,11.359417 C9.5782726,11.3761736 9.57665314,11.3435541 9.57368414,11.1553886 Z" id="Fill-3" fill="#F25C31" mask="url(#mask-22)"></path>
                    </g>
                    <g id="man-user" transform="translate(100.000000, 16.000000)">
                        <mask id="mask-24" fill="white">
                            <use xlink:href="#path-23"></use>
                        </mask>
                        <g id="Clip-2"></g>
                        <path d="M4.44736842,6.15789474 C5.76978177,6.15789474 6.84210526,4.77947569 6.84210526,3.07894737 C6.84210526,1.37855395 6.48997431,0 4.44736842,0 C2.4045926,0 2.05263158,1.37855395 2.05263158,3.07894737 C2.05263158,4.77947569 3.12482762,6.15789474 4.44736842,6.15789474 Z" id="Fill-1" fill="#F25C31" mask="url(#mask-24)"></path>
                        <path d="M9.57368414,11.1553886 C9.5267649,8.21181223 9.13966992,7.37308846 6.17822469,6.84210526 C6.17822469,6.84210526 5.76121477,7.36978182 4.78963113,7.36978182 C3.81791254,7.36978182 3.40090261,6.84210526 3.40090261,6.84210526 C0.471801519,7.36732419 0.0611344645,8.19367042 0.00719758228,11.0597196 C0.00278906314,11.2937758 0.000674773339,11.3060193 0,11.2787619 C0.000179939557,11.3297466 0.000359879114,11.4239858 0.000359879114,11.5880664 C0.000359879114,11.5880664 0.705318079,13 4.78963113,13 C8.87376424,13 9.57876743,11.5880664 9.57876743,11.5880664 C9.57876743,11.4826562 9.57894737,11.4093293 9.57894737,11.359417 C9.5782726,11.3761736 9.57665314,11.3435541 9.57368414,11.1553886 Z" id="Fill-3" fill="#F25C31" mask="url(#mask-24)"></path>
                    </g>
                    <g id="man-user" transform="translate(120.000000, 16.000000)">
                        <mask id="mask-26" fill="white">
                            <use xlink:href="#path-25"></use>
                        </mask>
                        <g id="Clip-2"></g>
                        <path d="M4.44736842,6.15789474 C5.76978177,6.15789474 6.84210526,4.77947569 6.84210526,3.07894737 C6.84210526,1.37855395 6.48997431,0 4.44736842,0 C2.4045926,0 2.05263158,1.37855395 2.05263158,3.07894737 C2.05263158,4.77947569 3.12482762,6.15789474 4.44736842,6.15789474 Z" id="Fill-1" fill="#F25C31" mask="url(#mask-26)"></path>
                        <path d="M9.57368414,11.1553886 C9.5267649,8.21181223 9.13966992,7.37308846 6.17822469,6.84210526 C6.17822469,6.84210526 5.76121477,7.36978182 4.78963113,7.36978182 C3.81791254,7.36978182 3.40090261,6.84210526 3.40090261,6.84210526 C0.471801519,7.36732419 0.0611344645,8.19367042 0.00719758228,11.0597196 C0.00278906314,11.2937758 0.000674773339,11.3060193 0,11.2787619 C0.000179939557,11.3297466 0.000359879114,11.4239858 0.000359879114,11.5880664 C0.000359879114,11.5880664 0.705318079,13 4.78963113,13 C8.87376424,13 9.57876743,11.5880664 9.57876743,11.5880664 C9.57876743,11.4826562 9.57894737,11.4093293 9.57894737,11.359417 C9.5782726,11.3761736 9.57665314,11.3435541 9.57368414,11.1553886 Z" id="Fill-3" fill="#F25C31" mask="url(#mask-26)"></path>
                    </g>
                    <g id="man-user" transform="translate(140.000000, 16.000000)">
                        <mask id="mask-28" fill="white">
                            <use xlink:href="#path-27"></use>
                        </mask>
                        <g id="Clip-2"></g>
                        <path d="M4.44736842,6.15789474 C5.76978177,6.15789474 6.84210526,4.77947569 6.84210526,3.07894737 C6.84210526,1.37855395 6.48997431,0 4.44736842,0 C2.4045926,0 2.05263158,1.37855395 2.05263158,3.07894737 C2.05263158,4.77947569 3.12482762,6.15789474 4.44736842,6.15789474 Z" id="Fill-1" fill="#F25C31" mask="url(#mask-28)"></path>
                        <path d="M9.57368414,11.1553886 C9.5267649,8.21181223 9.13966992,7.37308846 6.17822469,6.84210526 C6.17822469,6.84210526 5.76121477,7.36978182 4.78963113,7.36978182 C3.81791254,7.36978182 3.40090261,6.84210526 3.40090261,6.84210526 C0.471801519,7.36732419 0.0611344645,8.19367042 0.00719758228,11.0597196 C0.00278906314,11.2937758 0.000674773339,11.3060193 0,11.2787619 C0.000179939557,11.3297466 0.000359879114,11.4239858 0.000359879114,11.5880664 C0.000359879114,11.5880664 0.705318079,13 4.78963113,13 C8.87376424,13 9.57876743,11.5880664 9.57876743,11.5880664 C9.57876743,11.4826562 9.57894737,11.4093293 9.57894737,11.359417 C9.5782726,11.3761736 9.57665314,11.3435541 9.57368414,11.1553886 Z" id="Fill-3" fill="#F25C31" mask="url(#mask-28)"></path>
                    </g>
                    <g id="man-user" transform="translate(160.000000, 16.000000)">
                        <mask id="mask-30" fill="white">
                            <use xlink:href="#path-29"></use>
                        </mask>
                        <g id="Clip-2"></g>
                        <path d="M4.44736842,6.15789474 C5.76978177,6.15789474 6.84210526,4.77947569 6.84210526,3.07894737 C6.84210526,1.37855395 6.48997431,0 4.44736842,0 C2.4045926,0 2.05263158,1.37855395 2.05263158,3.07894737 C2.05263158,4.77947569 3.12482762,6.15789474 4.44736842,6.15789474 Z" id="Fill-1" fill="#F25C31" mask="url(#mask-30)"></path>
                        <path d="M9.57368414,11.1553886 C9.5267649,8.21181223 9.13966992,7.37308846 6.17822469,6.84210526 C6.17822469,6.84210526 5.76121477,7.36978182 4.78963113,7.36978182 C3.81791254,7.36978182 3.40090261,6.84210526 3.40090261,6.84210526 C0.471801519,7.36732419 0.0611344645,8.19367042 0.00719758228,11.0597196 C0.00278906314,11.2937758 0.000674773339,11.3060193 0,11.2787619 C0.000179939557,11.3297466 0.000359879114,11.4239858 0.000359879114,11.5880664 C0.000359879114,11.5880664 0.705318079,13 4.78963113,13 C8.87376424,13 9.57876743,11.5880664 9.57876743,11.5880664 C9.57876743,11.4826562 9.57894737,11.4093293 9.57894737,11.359417 C9.5782726,11.3761736 9.57665314,11.3435541 9.57368414,11.1553886 Z" id="Fill-3" fill="#F25C31" mask="url(#mask-30)"></path>
                    </g>
                    <g id="man-user" transform="translate(180.000000, 16.000000)">
                        <mask id="mask-32" fill="white">
                            <use xlink:href="#path-31"></use>
                        </mask>
                        <g id="Clip-2"></g>
                        <path d="M4.44736842,6.15789474 C5.76978177,6.15789474 6.84210526,4.77947569 6.84210526,3.07894737 C6.84210526,1.37855395 6.48997431,0 4.44736842,0 C2.4045926,0 2.05263158,1.37855395 2.05263158,3.07894737 C2.05263158,4.77947569 3.12482762,6.15789474 4.44736842,6.15789474 Z" id="Fill-1" fill="#F25C31" mask="url(#mask-32)"></path>
                        <path d="M9.57368414,11.1553886 C9.5267649,8.21181223 9.13966992,7.37308846 6.17822469,6.84210526 C6.17822469,6.84210526 5.76121477,7.36978182 4.78963113,7.36978182 C3.81791254,7.36978182 3.40090261,6.84210526 3.40090261,6.84210526 C0.471801519,7.36732419 0.0611344645,8.19367042 0.00719758228,11.0597196 C0.00278906314,11.2937758 0.000674773339,11.3060193 0,11.2787619 C0.000179939557,11.3297466 0.000359879114,11.4239858 0.000359879114,11.5880664 C0.000359879114,11.5880664 0.705318079,13 4.78963113,13 C8.87376424,13 9.57876743,11.5880664 9.57876743,11.5880664 C9.57876743,11.4826562 9.57894737,11.4093293 9.57894737,11.359417 C9.5782726,11.3761736 9.57665314,11.3435541 9.57368414,11.1553886 Z" id="Fill-3" fill="#F25C31" mask="url(#mask-32)"></path>
                    </g>
                    <g id="man-user" opacity="0.699999988" transform="translate(46.000000, 33.000000)">
                        <mask id="mask-34" fill="white">
                            <use xlink:href="#path-33"></use>
                        </mask>
                        <g id="Clip-2"></g>
                        <path d="M4.44736842,6.15789474 C5.76978177,6.15789474 6.84210526,4.77947569 6.84210526,3.07894737 C6.84210526,1.37855395 6.48997431,0 4.44736842,0 C2.4045926,0 2.05263158,1.37855395 2.05263158,3.07894737 C2.05263158,4.77947569 3.12482762,6.15789474 4.44736842,6.15789474 Z" id="Fill-1" fill="#F25C31" mask="url(#mask-34)"></path>
                        <path d="M9.57368414,11.1553886 C9.5267649,8.21181223 9.13966992,7.37308846 6.17822469,6.84210526 C6.17822469,6.84210526 5.76121477,7.36978182 4.78963113,7.36978182 C3.81791254,7.36978182 3.40090261,6.84210526 3.40090261,6.84210526 C0.471801519,7.36732419 0.0611344645,8.19367042 0.00719758228,11.0597196 C0.00278906314,11.2937758 0.000674773339,11.3060193 0,11.2787619 C0.000179939557,11.3297466 0.000359879114,11.4239858 0.000359879114,11.5880664 C0.000359879114,11.5880664 0.705318079,13 4.78963113,13 C8.87376424,13 9.57876743,11.5880664 9.57876743,11.5880664 C9.57876743,11.4826562 9.57894737,11.4093293 9.57894737,11.359417 C9.5782726,11.3761736 9.57665314,11.3435541 9.57368414,11.1553886 Z" id="Fill-3" fill="#F25C31" mask="url(#mask-34)"></path>
                    </g>
                    <g id="man-user" opacity="0.800000012" transform="translate(66.000000, 33.000000)">
                        <mask id="mask-36" fill="white">
                            <use xlink:href="#path-35"></use>
                        </mask>
                        <g id="Clip-2"></g>
                        <path d="M4.44736842,6.15789474 C5.76978177,6.15789474 6.84210526,4.77947569 6.84210526,3.07894737 C6.84210526,1.37855395 6.48997431,0 4.44736842,0 C2.4045926,0 2.05263158,1.37855395 2.05263158,3.07894737 C2.05263158,4.77947569 3.12482762,6.15789474 4.44736842,6.15789474 Z" id="Fill-1" fill="#F25C31" mask="url(#mask-36)"></path>
                        <path d="M9.57368414,11.1553886 C9.5267649,8.21181223 9.13966992,7.37308846 6.17822469,6.84210526 C6.17822469,6.84210526 5.76121477,7.36978182 4.78963113,7.36978182 C3.81791254,7.36978182 3.40090261,6.84210526 3.40090261,6.84210526 C0.471801519,7.36732419 0.0611344645,8.19367042 0.00719758228,11.0597196 C0.00278906314,11.2937758 0.000674773339,11.3060193 0,11.2787619 C0.000179939557,11.3297466 0.000359879114,11.4239858 0.000359879114,11.5880664 C0.000359879114,11.5880664 0.705318079,13 4.78963113,13 C8.87376424,13 9.57876743,11.5880664 9.57876743,11.5880664 C9.57876743,11.4826562 9.57894737,11.4093293 9.57894737,11.359417 C9.5782726,11.3761736 9.57665314,11.3435541 9.57368414,11.1553886 Z" id="Fill-3" fill="#F25C31" mask="url(#mask-36)"></path>
                    </g>
                    <g id="man-user" transform="translate(86.000000, 33.000000)">
                        <mask id="mask-38" fill="white">
                            <use xlink:href="#path-37"></use>
                        </mask>
                        <g id="Clip-2"></g>
                        <path d="M4.44736842,6.15789474 C5.76978177,6.15789474 6.84210526,4.77947569 6.84210526,3.07894737 C6.84210526,1.37855395 6.48997431,0 4.44736842,0 C2.4045926,0 2.05263158,1.37855395 2.05263158,3.07894737 C2.05263158,4.77947569 3.12482762,6.15789474 4.44736842,6.15789474 Z" id="Fill-1" fill="#F25C31" mask="url(#mask-38)"></path>
                        <path d="M9.57368414,11.1553886 C9.5267649,8.21181223 9.13966992,7.37308846 6.17822469,6.84210526 C6.17822469,6.84210526 5.76121477,7.36978182 4.78963113,7.36978182 C3.81791254,7.36978182 3.40090261,6.84210526 3.40090261,6.84210526 C0.471801519,7.36732419 0.0611344645,8.19367042 0.00719758228,11.0597196 C0.00278906314,11.2937758 0.000674773339,11.3060193 0,11.2787619 C0.000179939557,11.3297466 0.000359879114,11.4239858 0.000359879114,11.5880664 C0.000359879114,11.5880664 0.705318079,13 4.78963113,13 C8.87376424,13 9.57876743,11.5880664 9.57876743,11.5880664 C9.57876743,11.4826562 9.57894737,11.4093293 9.57894737,11.359417 C9.5782726,11.3761736 9.57665314,11.3435541 9.57368414,11.1553886 Z" id="Fill-3" fill="#F25C31" mask="url(#mask-38)"></path>
                    </g>
                    <g id="man-user" transform="translate(106.000000, 33.000000)">
                        <mask id="mask-40" fill="white">
                            <use xlink:href="#path-39"></use>
                        </mask>
                        <g id="Clip-2"></g>
                        <path d="M4.44736842,6.15789474 C5.76978177,6.15789474 6.84210526,4.77947569 6.84210526,3.07894737 C6.84210526,1.37855395 6.48997431,0 4.44736842,0 C2.4045926,0 2.05263158,1.37855395 2.05263158,3.07894737 C2.05263158,4.77947569 3.12482762,6.15789474 4.44736842,6.15789474 Z" id="Fill-1" fill="#F25C31" mask="url(#mask-40)"></path>
                        <path d="M9.57368414,11.1553886 C9.5267649,8.21181223 9.13966992,7.37308846 6.17822469,6.84210526 C6.17822469,6.84210526 5.76121477,7.36978182 4.78963113,7.36978182 C3.81791254,7.36978182 3.40090261,6.84210526 3.40090261,6.84210526 C0.471801519,7.36732419 0.0611344645,8.19367042 0.00719758228,11.0597196 C0.00278906314,11.2937758 0.000674773339,11.3060193 0,11.2787619 C0.000179939557,11.3297466 0.000359879114,11.4239858 0.000359879114,11.5880664 C0.000359879114,11.5880664 0.705318079,13 4.78963113,13 C8.87376424,13 9.57876743,11.5880664 9.57876743,11.5880664 C9.57876743,11.4826562 9.57894737,11.4093293 9.57894737,11.359417 C9.5782726,11.3761736 9.57665314,11.3435541 9.57368414,11.1553886 Z" id="Fill-3" fill="#F25C31" mask="url(#mask-40)"></path>
                    </g>
                    <g id="man-user" transform="translate(126.000000, 33.000000)">
                        <mask id="mask-42" fill="white">
                            <use xlink:href="#path-41"></use>
                        </mask>
                        <g id="Clip-2"></g>
                        <path d="M4.44736842,6.15789474 C5.76978177,6.15789474 6.84210526,4.77947569 6.84210526,3.07894737 C6.84210526,1.37855395 6.48997431,0 4.44736842,0 C2.4045926,0 2.05263158,1.37855395 2.05263158,3.07894737 C2.05263158,4.77947569 3.12482762,6.15789474 4.44736842,6.15789474 Z" id="Fill-1" fill="#F25C31" mask="url(#mask-42)"></path>
                        <path d="M9.57368414,11.1553886 C9.5267649,8.21181223 9.13966992,7.37308846 6.17822469,6.84210526 C6.17822469,6.84210526 5.76121477,7.36978182 4.78963113,7.36978182 C3.81791254,7.36978182 3.40090261,6.84210526 3.40090261,6.84210526 C0.471801519,7.36732419 0.0611344645,8.19367042 0.00719758228,11.0597196 C0.00278906314,11.2937758 0.000674773339,11.3060193 0,11.2787619 C0.000179939557,11.3297466 0.000359879114,11.4239858 0.000359879114,11.5880664 C0.000359879114,11.5880664 0.705318079,13 4.78963113,13 C8.87376424,13 9.57876743,11.5880664 9.57876743,11.5880664 C9.57876743,11.4826562 9.57894737,11.4093293 9.57894737,11.359417 C9.5782726,11.3761736 9.57665314,11.3435541 9.57368414,11.1553886 Z" id="Fill-3" fill="#F25C31" mask="url(#mask-42)"></path>
                    </g>
                    <g id="man-user" transform="translate(146.000000, 33.000000)">
                        <mask id="mask-44" fill="white">
                            <use xlink:href="#path-43"></use>
                        </mask>
                        <g id="Clip-2"></g>
                        <path d="M4.44736842,6.15789474 C5.76978177,6.15789474 6.84210526,4.77947569 6.84210526,3.07894737 C6.84210526,1.37855395 6.48997431,0 4.44736842,0 C2.4045926,0 2.05263158,1.37855395 2.05263158,3.07894737 C2.05263158,4.77947569 3.12482762,6.15789474 4.44736842,6.15789474 Z" id="Fill-1" fill="#F25C31" mask="url(#mask-44)"></path>
                        <path d="M9.57368414,11.1553886 C9.5267649,8.21181223 9.13966992,7.37308846 6.17822469,6.84210526 C6.17822469,6.84210526 5.76121477,7.36978182 4.78963113,7.36978182 C3.81791254,7.36978182 3.40090261,6.84210526 3.40090261,6.84210526 C0.471801519,7.36732419 0.0611344645,8.19367042 0.00719758228,11.0597196 C0.00278906314,11.2937758 0.000674773339,11.3060193 0,11.2787619 C0.000179939557,11.3297466 0.000359879114,11.4239858 0.000359879114,11.5880664 C0.000359879114,11.5880664 0.705318079,13 4.78963113,13 C8.87376424,13 9.57876743,11.5880664 9.57876743,11.5880664 C9.57876743,11.4826562 9.57894737,11.4093293 9.57894737,11.359417 C9.5782726,11.3761736 9.57665314,11.3435541 9.57368414,11.1553886 Z" id="Fill-3" fill="#F25C31" mask="url(#mask-44)"></path>
                    </g>
                    <g id="man-user" transform="translate(166.000000, 33.000000)">
                        <mask id="mask-46" fill="white">
                            <use xlink:href="#path-45"></use>
                        </mask>
                        <g id="Clip-2"></g>
                        <path d="M4.44736842,6.15789474 C5.76978177,6.15789474 6.84210526,4.77947569 6.84210526,3.07894737 C6.84210526,1.37855395 6.48997431,0 4.44736842,0 C2.4045926,0 2.05263158,1.37855395 2.05263158,3.07894737 C2.05263158,4.77947569 3.12482762,6.15789474 4.44736842,6.15789474 Z" id="Fill-1" fill="#F25C31" mask="url(#mask-46)"></path>
                        <path d="M9.57368414,11.1553886 C9.5267649,8.21181223 9.13966992,7.37308846 6.17822469,6.84210526 C6.17822469,6.84210526 5.76121477,7.36978182 4.78963113,7.36978182 C3.81791254,7.36978182 3.40090261,6.84210526 3.40090261,6.84210526 C0.471801519,7.36732419 0.0611344645,8.19367042 0.00719758228,11.0597196 C0.00278906314,11.2937758 0.000674773339,11.3060193 0,11.2787619 C0.000179939557,11.3297466 0.000359879114,11.4239858 0.000359879114,11.5880664 C0.000359879114,11.5880664 0.705318079,13 4.78963113,13 C8.87376424,13 9.57876743,11.5880664 9.57876743,11.5880664 C9.57876743,11.4826562 9.57894737,11.4093293 9.57894737,11.359417 C9.5782726,11.3761736 9.57665314,11.3435541 9.57368414,11.1553886 Z" id="Fill-3" fill="#F25C31" mask="url(#mask-46)"></path>
                    </g>
                    <g id="man-user" transform="translate(186.000000, 33.000000)">
                        <mask id="mask-48" fill="white">
                            <use xlink:href="#path-47"></use>
                        </mask>
                        <g id="Clip-2"></g>
                        <path d="M4.44736842,6.15789474 C5.76978177,6.15789474 6.84210526,4.77947569 6.84210526,3.07894737 C6.84210526,1.37855395 6.48997431,0 4.44736842,0 C2.4045926,0 2.05263158,1.37855395 2.05263158,3.07894737 C2.05263158,4.77947569 3.12482762,6.15789474 4.44736842,6.15789474 Z" id="Fill-1" fill="#F25C31" mask="url(#mask-48)"></path>
                        <path d="M9.57368414,11.1553886 C9.5267649,8.21181223 9.13966992,7.37308846 6.17822469,6.84210526 C6.17822469,6.84210526 5.76121477,7.36978182 4.78963113,7.36978182 C3.81791254,7.36978182 3.40090261,6.84210526 3.40090261,6.84210526 C0.471801519,7.36732419 0.0611344645,8.19367042 0.00719758228,11.0597196 C0.00278906314,11.2937758 0.000674773339,11.3060193 0,11.2787619 C0.000179939557,11.3297466 0.000359879114,11.4239858 0.000359879114,11.5880664 C0.000359879114,11.5880664 0.705318079,13 4.78963113,13 C8.87376424,13 9.57876743,11.5880664 9.57876743,11.5880664 C9.57876743,11.4826562 9.57894737,11.4093293 9.57894737,11.359417 C9.5782726,11.3761736 9.57665314,11.3435541 9.57368414,11.1553886 Z" id="Fill-3" fill="#F25C31" mask="url(#mask-48)"></path>
                    </g>
                    <g id="man-user" opacity="0.400000006" transform="translate(26.000000, 0.000000)">
                        <mask id="mask-50" fill="white">
                            <use xlink:href="#path-49"></use>
                        </mask>
                        <g id="Clip-2"></g>
                        <path d="M4.44736842,6.15789474 C5.76978177,6.15789474 6.84210526,4.77947569 6.84210526,3.07894737 C6.84210526,1.37855395 6.48997431,0 4.44736842,0 C2.4045926,0 2.05263158,1.37855395 2.05263158,3.07894737 C2.05263158,4.77947569 3.12482762,6.15789474 4.44736842,6.15789474 Z" id="Fill-1" fill="#F25C31" mask="url(#mask-50)"></path>
                        <path d="M9.57368414,11.1553886 C9.5267649,8.21181223 9.13966992,7.37308846 6.17822469,6.84210526 C6.17822469,6.84210526 5.76121477,7.36978182 4.78963113,7.36978182 C3.81791254,7.36978182 3.40090261,6.84210526 3.40090261,6.84210526 C0.471801519,7.36732419 0.0611344645,8.19367042 0.00719758228,11.0597196 C0.00278906314,11.2937758 0.000674773339,11.3060193 0,11.2787619 C0.000179939557,11.3297466 0.000359879114,11.4239858 0.000359879114,11.5880664 C0.000359879114,11.5880664 0.705318079,13 4.78963113,13 C8.87376424,13 9.57876743,11.5880664 9.57876743,11.5880664 C9.57876743,11.4826562 9.57894737,11.4093293 9.57894737,11.359417 C9.5782726,11.3761736 9.57665314,11.3435541 9.57368414,11.1553886 Z" id="Fill-3" fill="#F25C31" mask="url(#mask-50)"></path>
                    </g>
                    <g id="man-user" opacity="0.400000006" transform="translate(20.000000, 16.000000)">
                        <mask id="mask-52" fill="white">
                            <use xlink:href="#path-51"></use>
                        </mask>
                        <g id="Clip-2"></g>
                        <path d="M4.44736842,6.15789474 C5.76978177,6.15789474 6.84210526,4.77947569 6.84210526,3.07894737 C6.84210526,1.37855395 6.48997431,0 4.44736842,0 C2.4045926,0 2.05263158,1.37855395 2.05263158,3.07894737 C2.05263158,4.77947569 3.12482762,6.15789474 4.44736842,6.15789474 Z" id="Fill-1" fill="#F25C31" mask="url(#mask-52)"></path>
                        <path d="M9.57368414,11.1553886 C9.5267649,8.21181223 9.13966992,7.37308846 6.17822469,6.84210526 C6.17822469,6.84210526 5.76121477,7.36978182 4.78963113,7.36978182 C3.81791254,7.36978182 3.40090261,6.84210526 3.40090261,6.84210526 C0.471801519,7.36732419 0.0611344645,8.19367042 0.00719758228,11.0597196 C0.00278906314,11.2937758 0.000674773339,11.3060193 0,11.2787619 C0.000179939557,11.3297466 0.000359879114,11.4239858 0.000359879114,11.5880664 C0.000359879114,11.5880664 0.705318079,13 4.78963113,13 C8.87376424,13 9.57876743,11.5880664 9.57876743,11.5880664 C9.57876743,11.4826562 9.57894737,11.4093293 9.57894737,11.359417 C9.5782726,11.3761736 9.57665314,11.3435541 9.57368414,11.1553886 Z" id="Fill-3" fill="#F25C31" mask="url(#mask-52)"></path>
                    </g>
                    <g id="man-user" opacity="0.400000006" transform="translate(26.000000, 33.000000)">
                        <mask id="mask-54" fill="white">
                            <use xlink:href="#path-53"></use>
                        </mask>
                        <g id="Clip-2"></g>
                        <path d="M4.44736842,6.15789474 C5.76978177,6.15789474 6.84210526,4.77947569 6.84210526,3.07894737 C6.84210526,1.37855395 6.48997431,0 4.44736842,0 C2.4045926,0 2.05263158,1.37855395 2.05263158,3.07894737 C2.05263158,4.77947569 3.12482762,6.15789474 4.44736842,6.15789474 Z" id="Fill-1" fill="#F25C31" mask="url(#mask-54)"></path>
                        <path d="M9.57368414,11.1553886 C9.5267649,8.21181223 9.13966992,7.37308846 6.17822469,6.84210526 C6.17822469,6.84210526 5.76121477,7.36978182 4.78963113,7.36978182 C3.81791254,7.36978182 3.40090261,6.84210526 3.40090261,6.84210526 C0.471801519,7.36732419 0.0611344645,8.19367042 0.00719758228,11.0597196 C0.00278906314,11.2937758 0.000674773339,11.3060193 0,11.2787619 C0.000179939557,11.3297466 0.000359879114,11.4239858 0.000359879114,11.5880664 C0.000359879114,11.5880664 0.705318079,13 4.78963113,13 C8.87376424,13 9.57876743,11.5880664 9.57876743,11.5880664 C9.57876743,11.4826562 9.57894737,11.4093293 9.57894737,11.359417 C9.5782726,11.3761736 9.57665314,11.3435541 9.57368414,11.1553886 Z" id="Fill-3" fill="#F25C31" mask="url(#mask-54)"></path>
                    </g>
                    <g id="man-user" opacity="0.200000003" transform="translate(6.000000, 0.000000)">
                        <mask id="mask-56" fill="white">
                            <use xlink:href="#path-55"></use>
                        </mask>
                        <g id="Clip-2"></g>
                        <path d="M4.44736842,6.15789474 C5.76978177,6.15789474 6.84210526,4.77947569 6.84210526,3.07894737 C6.84210526,1.37855395 6.48997431,0 4.44736842,0 C2.4045926,0 2.05263158,1.37855395 2.05263158,3.07894737 C2.05263158,4.77947569 3.12482762,6.15789474 4.44736842,6.15789474 Z" id="Fill-1" fill="#F25C31" mask="url(#mask-56)"></path>
                        <path d="M9.57368414,11.1553886 C9.5267649,8.21181223 9.13966992,7.37308846 6.17822469,6.84210526 C6.17822469,6.84210526 5.76121477,7.36978182 4.78963113,7.36978182 C3.81791254,7.36978182 3.40090261,6.84210526 3.40090261,6.84210526 C0.471801519,7.36732419 0.0611344645,8.19367042 0.00719758228,11.0597196 C0.00278906314,11.2937758 0.000674773339,11.3060193 0,11.2787619 C0.000179939557,11.3297466 0.000359879114,11.4239858 0.000359879114,11.5880664 C0.000359879114,11.5880664 0.705318079,13 4.78963113,13 C8.87376424,13 9.57876743,11.5880664 9.57876743,11.5880664 C9.57876743,11.4826562 9.57894737,11.4093293 9.57894737,11.359417 C9.5782726,11.3761736 9.57665314,11.3435541 9.57368414,11.1553886 Z" id="Fill-3" fill="#F25C31" mask="url(#mask-56)"></path>
                    </g>
                    <g id="man-user" opacity="0.100000001" transform="translate(0.000000, 16.000000)">
                        <mask id="mask-58" fill="white">
                            <use xlink:href="#path-57"></use>
                        </mask>
                        <g id="Clip-2"></g>
                        <path d="M4.44736842,6.15789474 C5.76978177,6.15789474 6.84210526,4.77947569 6.84210526,3.07894737 C6.84210526,1.37855395 6.48997431,0 4.44736842,0 C2.4045926,0 2.05263158,1.37855395 2.05263158,3.07894737 C2.05263158,4.77947569 3.12482762,6.15789474 4.44736842,6.15789474 Z" id="Fill-1" fill="#F25C31" mask="url(#mask-58)"></path>
                        <path d="M9.57368414,11.1553886 C9.5267649,8.21181223 9.13966992,7.37308846 6.17822469,6.84210526 C6.17822469,6.84210526 5.76121477,7.36978182 4.78963113,7.36978182 C3.81791254,7.36978182 3.40090261,6.84210526 3.40090261,6.84210526 C0.471801519,7.36732419 0.0611344645,8.19367042 0.00719758228,11.0597196 C0.00278906314,11.2937758 0.000674773339,11.3060193 0,11.2787619 C0.000179939557,11.3297466 0.000359879114,11.4239858 0.000359879114,11.5880664 C0.000359879114,11.5880664 0.705318079,13 4.78963113,13 C8.87376424,13 9.57876743,11.5880664 9.57876743,11.5880664 C9.57876743,11.4826562 9.57894737,11.4093293 9.57894737,11.359417 C9.5782726,11.3761736 9.57665314,11.3435541 9.57368414,11.1553886 Z" id="Fill-3" fill="#F25C31" mask="url(#mask-58)"></path>
                    </g>
                    <g id="man-user" opacity="0.200000003" transform="translate(6.000000, 33.000000)">
                        <mask id="mask-60" fill="white">
                            <use xlink:href="#path-59"></use>
                        </mask>
                        <g id="Clip-2"></g>
                        <path d="M4.44736842,6.15789474 C5.76978177,6.15789474 6.84210526,4.77947569 6.84210526,3.07894737 C6.84210526,1.37855395 6.48997431,0 4.44736842,0 C2.4045926,0 2.05263158,1.37855395 2.05263158,3.07894737 C2.05263158,4.77947569 3.12482762,6.15789474 4.44736842,6.15789474 Z" id="Fill-1" fill="#F25C31" mask="url(#mask-60)"></path>
                        <path d="M9.57368414,11.1553886 C9.5267649,8.21181223 9.13966992,7.37308846 6.17822469,6.84210526 C6.17822469,6.84210526 5.76121477,7.36978182 4.78963113,7.36978182 C3.81791254,7.36978182 3.40090261,6.84210526 3.40090261,6.84210526 C0.471801519,7.36732419 0.0611344645,8.19367042 0.00719758228,11.0597196 C0.00278906314,11.2937758 0.000674773339,11.3060193 0,11.2787619 C0.000179939557,11.3297466 0.000359879114,11.4239858 0.000359879114,11.5880664 C0.000359879114,11.5880664 0.705318079,13 4.78963113,13 C8.87376424,13 9.57876743,11.5880664 9.57876743,11.5880664 C9.57876743,11.4826562 9.57894737,11.4093293 9.57894737,11.359417 C9.5782726,11.3761736 9.57665314,11.3435541 9.57368414,11.1553886 Z" id="Fill-3" fill="#F25C31" mask="url(#mask-60)"></path>
                    </g>
                    <g id="man-user" transform="translate(208.000000, 0.000000)">
                        <mask id="mask-62" fill="white">
                            <use xlink:href="#path-61"></use>
                        </mask>
                        <g id="Clip-2"></g>
                        <path d="M4.44736842,6.15789474 C5.76978177,6.15789474 6.84210526,4.77947569 6.84210526,3.07894737 C6.84210526,1.37855395 6.48997431,0 4.44736842,0 C2.4045926,0 2.05263158,1.37855395 2.05263158,3.07894737 C2.05263158,4.77947569 3.12482762,6.15789474 4.44736842,6.15789474 Z" id="Fill-1" fill="#F25C31" mask="url(#mask-62)"></path>
                        <path d="M9.57368414,11.1553886 C9.5267649,8.21181223 9.13966992,7.37308846 6.17822469,6.84210526 C6.17822469,6.84210526 5.76121477,7.36978182 4.78963113,7.36978182 C3.81791254,7.36978182 3.40090261,6.84210526 3.40090261,6.84210526 C0.471801519,7.36732419 0.0611344645,8.19367042 0.00719758228,11.0597196 C0.00278906314,11.2937758 0.000674773339,11.3060193 0,11.2787619 C0.000179939557,11.3297466 0.000359879114,11.4239858 0.000359879114,11.5880664 C0.000359879114,11.5880664 0.705318079,13 4.78963113,13 C8.87376424,13 9.57876743,11.5880664 9.57876743,11.5880664 C9.57876743,11.4826562 9.57894737,11.4093293 9.57894737,11.359417 C9.5782726,11.3761736 9.57665314,11.3435541 9.57368414,11.1553886 Z" id="Fill-3" fill="#F25C31" mask="url(#mask-62)"></path>
                    </g>
                    <g id="man-user" transform="translate(228.000000, 0.000000)">
                        <mask id="mask-64" fill="white">
                            <use xlink:href="#path-63"></use>
                        </mask>
                        <g id="Clip-2"></g>
                        <path d="M4.44736842,6.15789474 C5.76978177,6.15789474 6.84210526,4.77947569 6.84210526,3.07894737 C6.84210526,1.37855395 6.48997431,0 4.44736842,0 C2.4045926,0 2.05263158,1.37855395 2.05263158,3.07894737 C2.05263158,4.77947569 3.12482762,6.15789474 4.44736842,6.15789474 Z" id="Fill-1" fill="#F25C31" mask="url(#mask-64)"></path>
                        <path d="M9.57368414,11.1553886 C9.5267649,8.21181223 9.13966992,7.37308846 6.17822469,6.84210526 C6.17822469,6.84210526 5.76121477,7.36978182 4.78963113,7.36978182 C3.81791254,7.36978182 3.40090261,6.84210526 3.40090261,6.84210526 C0.471801519,7.36732419 0.0611344645,8.19367042 0.00719758228,11.0597196 C0.00278906314,11.2937758 0.000674773339,11.3060193 0,11.2787619 C0.000179939557,11.3297466 0.000359879114,11.4239858 0.000359879114,11.5880664 C0.000359879114,11.5880664 0.705318079,13 4.78963113,13 C8.87376424,13 9.57876743,11.5880664 9.57876743,11.5880664 C9.57876743,11.4826562 9.57894737,11.4093293 9.57894737,11.359417 C9.5782726,11.3761736 9.57665314,11.3435541 9.57368414,11.1553886 Z" id="Fill-3" fill="#F25C31" mask="url(#mask-64)"></path>
                    </g>
                    <g id="man-user" transform="translate(202.000000, 16.000000)">
                        <mask id="mask-66" fill="white">
                            <use xlink:href="#path-65"></use>
                        </mask>
                        <g id="Clip-2"></g>
                        <path d="M4.44736842,6.15789474 C5.76978177,6.15789474 6.84210526,4.77947569 6.84210526,3.07894737 C6.84210526,1.37855395 6.48997431,0 4.44736842,0 C2.4045926,0 2.05263158,1.37855395 2.05263158,3.07894737 C2.05263158,4.77947569 3.12482762,6.15789474 4.44736842,6.15789474 Z" id="Fill-1" fill="#F25C31" mask="url(#mask-66)"></path>
                        <path d="M9.57368414,11.1553886 C9.5267649,8.21181223 9.13966992,7.37308846 6.17822469,6.84210526 C6.17822469,6.84210526 5.76121477,7.36978182 4.78963113,7.36978182 C3.81791254,7.36978182 3.40090261,6.84210526 3.40090261,6.84210526 C0.471801519,7.36732419 0.0611344645,8.19367042 0.00719758228,11.0597196 C0.00278906314,11.2937758 0.000674773339,11.3060193 0,11.2787619 C0.000179939557,11.3297466 0.000359879114,11.4239858 0.000359879114,11.5880664 C0.000359879114,11.5880664 0.705318079,13 4.78963113,13 C8.87376424,13 9.57876743,11.5880664 9.57876743,11.5880664 C9.57876743,11.4826562 9.57894737,11.4093293 9.57894737,11.359417 C9.5782726,11.3761736 9.57665314,11.3435541 9.57368414,11.1553886 Z" id="Fill-3" fill="#F25C31" mask="url(#mask-66)"></path>
                    </g>
                    <g id="man-user" transform="translate(222.000000, 16.000000)">
                        <mask id="mask-68" fill="white">
                            <use xlink:href="#path-67"></use>
                        </mask>
                        <g id="Clip-2"></g>
                        <path d="M4.44736842,6.15789474 C5.76978177,6.15789474 6.84210526,4.77947569 6.84210526,3.07894737 C6.84210526,1.37855395 6.48997431,0 4.44736842,0 C2.4045926,0 2.05263158,1.37855395 2.05263158,3.07894737 C2.05263158,4.77947569 3.12482762,6.15789474 4.44736842,6.15789474 Z" id="Fill-1" fill="#F25C31" mask="url(#mask-68)"></path>
                        <path d="M9.57368414,11.1553886 C9.5267649,8.21181223 9.13966992,7.37308846 6.17822469,6.84210526 C6.17822469,6.84210526 5.76121477,7.36978182 4.78963113,7.36978182 C3.81791254,7.36978182 3.40090261,6.84210526 3.40090261,6.84210526 C0.471801519,7.36732419 0.0611344645,8.19367042 0.00719758228,11.0597196 C0.00278906314,11.2937758 0.000674773339,11.3060193 0,11.2787619 C0.000179939557,11.3297466 0.000359879114,11.4239858 0.000359879114,11.5880664 C0.000359879114,11.5880664 0.705318079,13 4.78963113,13 C8.87376424,13 9.57876743,11.5880664 9.57876743,11.5880664 C9.57876743,11.4826562 9.57894737,11.4093293 9.57894737,11.359417 C9.5782726,11.3761736 9.57665314,11.3435541 9.57368414,11.1553886 Z" id="Fill-3" fill="#F25C31" mask="url(#mask-68)"></path>
                    </g>
                    <g id="man-user" transform="translate(239.000000, 16.000000)">
                        <mask id="mask-70" fill="white">
                            <use xlink:href="#path-69"></use>
                        </mask>
                        <g id="Clip-2"></g>
                        <path d="M4.44736842,6.15789474 C5.76978177,6.15789474 6.84210526,4.77947569 6.84210526,3.07894737 C6.84210526,1.37855395 6.48997431,0 4.44736842,0 C2.4045926,0 2.05263158,1.37855395 2.05263158,3.07894737 C2.05263158,4.77947569 3.12482762,6.15789474 4.44736842,6.15789474 Z" id="Fill-1" fill="#F25C31" mask="url(#mask-70)"></path>
                        <path d="M9.57368414,11.1553886 C9.5267649,8.21181223 9.13966992,7.37308846 6.17822469,6.84210526 C6.17822469,6.84210526 5.76121477,7.36978182 4.78963113,7.36978182 C3.81791254,7.36978182 3.40090261,6.84210526 3.40090261,6.84210526 C0.471801519,7.36732419 0.0611344645,8.19367042 0.00719758228,11.0597196 C0.00278906314,11.2937758 0.000674773339,11.3060193 0,11.2787619 C0.000179939557,11.3297466 0.000359879114,11.4239858 0.000359879114,11.5880664 C0.000359879114,11.5880664 0.705318079,13 4.78963113,13 C8.87376424,13 9.57876743,11.5880664 9.57876743,11.5880664 C9.57876743,11.4826562 9.57894737,11.4093293 9.57894737,11.359417 C9.5782726,11.3761736 9.57665314,11.3435541 9.57368414,11.1553886 Z" id="Fill-3" fill="#F25C31" mask="url(#mask-70)"></path>
                    </g>
                    <g id="man-user" transform="translate(208.000000, 33.000000)">
                        <mask id="mask-72" fill="white">
                            <use xlink:href="#path-71"></use>
                        </mask>
                        <g id="Clip-2"></g>
                        <path d="M4.44736842,6.15789474 C5.76978177,6.15789474 6.84210526,4.77947569 6.84210526,3.07894737 C6.84210526,1.37855395 6.48997431,0 4.44736842,0 C2.4045926,0 2.05263158,1.37855395 2.05263158,3.07894737 C2.05263158,4.77947569 3.12482762,6.15789474 4.44736842,6.15789474 Z" id="Fill-1" fill="#F25C31" mask="url(#mask-72)"></path>
                        <path d="M9.57368414,11.1553886 C9.5267649,8.21181223 9.13966992,7.37308846 6.17822469,6.84210526 C6.17822469,6.84210526 5.76121477,7.36978182 4.78963113,7.36978182 C3.81791254,7.36978182 3.40090261,6.84210526 3.40090261,6.84210526 C0.471801519,7.36732419 0.0611344645,8.19367042 0.00719758228,11.0597196 C0.00278906314,11.2937758 0.000674773339,11.3060193 0,11.2787619 C0.000179939557,11.3297466 0.000359879114,11.4239858 0.000359879114,11.5880664 C0.000359879114,11.5880664 0.705318079,13 4.78963113,13 C8.87376424,13 9.57876743,11.5880664 9.57876743,11.5880664 C9.57876743,11.4826562 9.57894737,11.4093293 9.57894737,11.359417 C9.5782726,11.3761736 9.57665314,11.3435541 9.57368414,11.1553886 Z" id="Fill-3" fill="#F25C31" mask="url(#mask-72)"></path>
                    </g>
                    <g id="man-user" transform="translate(228.000000, 33.000000)">
                        <mask id="mask-74" fill="white">
                            <use xlink:href="#path-73"></use>
                        </mask>
                        <g id="Clip-2"></g>
                        <path d="M4.44736842,6.15789474 C5.76978177,6.15789474 6.84210526,4.77947569 6.84210526,3.07894737 C6.84210526,1.37855395 6.48997431,0 4.44736842,0 C2.4045926,0 2.05263158,1.37855395 2.05263158,3.07894737 C2.05263158,4.77947569 3.12482762,6.15789474 4.44736842,6.15789474 Z" id="Fill-1" fill="#F25C31" mask="url(#mask-74)"></path>
                        <path d="M9.57368414,11.1553886 C9.5267649,8.21181223 9.13966992,7.37308846 6.17822469,6.84210526 C6.17822469,6.84210526 5.76121477,7.36978182 4.78963113,7.36978182 C3.81791254,7.36978182 3.40090261,6.84210526 3.40090261,6.84210526 C0.471801519,7.36732419 0.0611344645,8.19367042 0.00719758228,11.0597196 C0.00278906314,11.2937758 0.000674773339,11.3060193 0,11.2787619 C0.000179939557,11.3297466 0.000359879114,11.4239858 0.000359879114,11.5880664 C0.000359879114,11.5880664 0.705318079,13 4.78963113,13 C8.87376424,13 9.57876743,11.5880664 9.57876743,11.5880664 C9.57876743,11.4826562 9.57894737,11.4093293 9.57894737,11.359417 C9.5782726,11.3761736 9.57665314,11.3435541 9.57368414,11.1553886 Z" id="Fill-3" fill="#F25C31" mask="url(#mask-74)"></path>
                    </g>
                </g>
            </g>
        </g>
    </g>
</svg>