<?xml version="1.0" encoding="UTF-8" standalone="no"?>
<!-- Generator: Adobe Illustrator 22.0.1, SVG Export Plug-In . SVG Version: 6.00 Build 0)  -->

<svg
   xmlns:dc="http://purl.org/dc/elements/1.1/"
   xmlns:cc="http://creativecommons.org/ns#"
   xmlns:rdf="http://www.w3.org/1999/02/22-rdf-syntax-ns#"
   xmlns:svg="http://www.w3.org/2000/svg"
   xmlns="http://www.w3.org/2000/svg"
   xmlns:sodipodi="http://sodipodi.sourceforge.net/DTD/sodipodi-0.dtd"
   xmlns:inkscape="http://www.inkscape.org/namespaces/inkscape"
   version="1.1"
   id="Слой_1"
   x="0px"
   y="0px"
   viewBox="0 0 592 179"
   xml:space="preserve"
   sodipodi:docname="maximum2.svg"
   width="592"
   height="179"
   inkscape:version="0.92.3 (3ce5693, 2018-03-11)"><metadata
   id="metadata138"><rdf:RDF><cc:Work
       rdf:about=""><dc:format>image/svg+xml</dc:format><dc:type
         rdf:resource="http://purl.org/dc/dcmitype/StillImage" /><dc:title></dc:title></cc:Work></rdf:RDF></metadata><defs
   id="defs136" /><sodipodi:namedview
   pagecolor="#ffffff"
   bordercolor="#666666"
   borderopacity="1"
   objecttolerance="10"
   gridtolerance="10"
   guidetolerance="10"
   inkscape:pageopacity="0"
   inkscape:pageshadow="2"
   inkscape:window-width="1853"
   inkscape:window-height="1025"
   id="namedview134"
   showgrid="false"
   inkscape:zoom="0.75208333"
   inkscape:cx="427.82722"
   inkscape:cy="205.60943"
   inkscape:window-x="67"
   inkscape:window-y="27"
   inkscape:window-maximized="1"
   inkscape:current-layer="Слой_1" />
<style
   type="text/css"
   id="style2">
	.st0{fill:#1E2324;}
	.st1{fill:url(#SVGID_1_);}
</style>
<g
   id="g122"
   transform="translate(-182.16066,-181.55402)">
	<g
   id="g6">
		<polygon
   class="st0"
   points="295.6,334.9 296.8,334.9 296.8,317.8 284.5,317.8 284.5,334.9 285.7,334.9 285.7,318.9 295.6,318.9 "
   id="polygon4"
   style="fill:#1e2324" />
	</g>
	<g
   id="g10">
		<polygon
   class="st0"
   points="266.1,290 266.1,227.7 247.2,227.7 233.7,263.1 228.4,227.7 210.5,227.7 190.9,290 208.2,290 218.9,249.4 225.2,290 235.5,290 251.5,249 250.2,290 "
   id="polygon8"
   style="fill:#1e2324" />
	</g>
	<g
   id="g120">
		<g
   id="g14">
			<path
   class="st0"
   d="m 308.4,317.4 c -2.4,0 -4.3,0.8 -5.6,2.4 -1.4,1.6 -2.1,3.7 -2.1,6.5 0,2.7 0.7,4.9 2,6.5 1.4,1.6 3.2,2.4 5.6,2.4 2.4,0 4.3,-0.8 5.6,-2.4 1.4,-1.6 2,-3.7 2,-6.5 0,-2.7 -0.7,-4.9 -2,-6.5 -1.2,-1.6 -3.1,-2.4 -5.5,-2.4 m 4.8,14.5 c -1.1,1.3 -2.7,2 -4.7,2 -2.1,0 -3.6,-0.7 -4.7,-2 -1.1,-1.3 -1.6,-3.2 -1.6,-5.7 0,-2.4 0.6,-4.3 1.7,-5.7 1.1,-1.3 2.7,-2 4.7,-2 2,0 3.6,0.7 4.7,2 1.1,1.3 1.6,3.2 1.6,5.7 -0.1,2.5 -0.6,4.4 -1.7,5.7"
   id="path12"
   inkscape:connector-curvature="0"
   style="fill:#1e2324" />
		</g>
		<g
   id="g18">
			<path
   class="st0"
   d="m 330.8,317.7 h -7.3 c -0.1,2.5 -0.6,5.3 -1.5,8.4 -0.9,3.1 -1.9,5.6 -3.1,7.7 h -1.2 v 5.5 h 1.2 V 335 h 12.5 v 4.3 h 1.1 v -5.5 h -1.8 v -16.1 z m -1.2,16 h -9.3 c 1,-1.8 1.9,-4.1 2.7,-6.9 0.8,-2.8 1.3,-5.5 1.5,-8 h 5 v 14.9 z"
   id="path16"
   inkscape:connector-curvature="0"
   style="fill:#1e2324" />
		</g>
		<g
   id="g22">
			<polygon
   class="st0"
   points="335.7,334.8 336.9,334.8 336.9,318.8 345.1,318.8 345.1,317.7 335.7,317.7 "
   id="polygon20"
   style="fill:#1e2324" />
		</g>
		<g
   id="g26">
			<path
   class="st0"
   d="m 354.6,317.4 c -2.4,0 -4.3,0.8 -5.6,2.4 -1.4,1.6 -2.1,3.7 -2.1,6.5 0,2.7 0.7,4.9 2,6.5 1.4,1.6 3.2,2.4 5.6,2.4 2.4,0 4.3,-0.8 5.6,-2.4 1.4,-1.6 2,-3.7 2,-6.5 0,-2.7 -0.7,-4.9 -2,-6.5 -1.2,-1.6 -3.1,-2.4 -5.5,-2.4 m 4.7,14.5 c -1.1,1.3 -2.7,2 -4.7,2 -2.1,0 -3.6,-0.7 -4.7,-2 -1.1,-1.3 -1.6,-3.2 -1.6,-5.7 0,-2.4 0.6,-4.3 1.7,-5.7 1.1,-1.3 2.7,-2 4.7,-2 2.1,0 3.6,0.7 4.7,2 1.1,1.3 1.6,3.2 1.6,5.7 -0.1,2.5 -0.6,4.4 -1.7,5.7"
   id="path24"
   inkscape:connector-curvature="0"
   style="fill:#1e2324" />
		</g>
		<g
   id="g30">
			<polygon
   class="st0"
   points="370.7,318.8 376.2,318.8 376.2,317.7 363.9,317.7 363.9,318.8 369.4,318.8 369.4,334.8 370.7,334.8 "
   id="polygon28"
   style="fill:#1e2324" />
		</g>
		<g
   id="g34">
			<path
   class="st0"
   d="m 385.6,317.4 c -2.4,0 -4.3,0.8 -5.6,2.4 -1.4,1.6 -2.1,3.7 -2.1,6.5 0,2.7 0.7,4.9 2,6.5 1.4,1.6 3.2,2.4 5.6,2.4 2.4,0 4.3,-0.8 5.6,-2.4 1.4,-1.6 2,-3.7 2,-6.5 0,-2.7 -0.7,-4.9 -2,-6.5 -1.3,-1.6 -3.1,-2.4 -5.5,-2.4 m 4.7,14.5 c -1.1,1.3 -2.7,2 -4.7,2 -2.1,0 -3.6,-0.7 -4.7,-2 -1.1,-1.3 -1.6,-3.2 -1.6,-5.7 0,-2.4 0.6,-4.3 1.7,-5.7 1.1,-1.3 2.7,-2 4.7,-2 2,0 3.6,0.7 4.7,2 1.1,1.3 1.6,3.2 1.6,5.7 -0.1,2.5 -0.6,4.4 -1.7,5.7"
   id="path32"
   inkscape:connector-curvature="0"
   style="fill:#1e2324" />
		</g>
		<g
   id="g38">
			<path
   class="st0"
   d="m 404.5,325.8 v 0 c 1.2,-0.3 2.1,-0.7 2.7,-1.3 0.6,-0.7 0.9,-1.5 0.9,-2.5 0,-1.5 -0.5,-2.5 -1.5,-3.3 -1,-0.7 -2.6,-1.1 -4.7,-1.1 h -4.7 v 17.2 h 5.3 c 1.9,0 3.4,-0.4 4.5,-1.3 1,-0.9 1.6,-2.1 1.6,-3.7 0,-1.2 -0.3,-2.1 -1,-2.8 -0.8,-0.5 -1.8,-1 -3.1,-1.2 m -6.1,-7.1 h 3.5 c 1.6,0 2.9,0.3 3.7,0.8 0.8,0.5 1.2,1.3 1.2,2.5 0,1.1 -0.4,2 -1.1,2.5 -0.7,0.5 -1.9,0.8 -3.5,0.8 h -3.8 z m 4,15.1 h -4 v -7.4 h 3.8 c 3.3,0 5,1.2 5,3.5 0,2.6 -1.6,3.9 -4.8,3.9"
   id="path36"
   inkscape:connector-curvature="0"
   style="fill:#1e2324" />
		</g>
		<g
   id="g42">
			<polygon
   class="st0"
   points="412.2,317.7 412.2,334.8 413.4,334.8 413.4,326.1 421.9,334.8 423.5,334.8 415,326 423.3,317.7 421.7,317.7 413.4,326 413.4,317.7 "
   id="polygon40"
   style="fill:#1e2324" />
		</g>
		<g
   id="g46">
			<path
   class="st0"
   d="m 430.4,317.6 -6.9,17.2 h 1.3 l 2.4,-6.1 h 7 l 2.4,6.1 h 1.4 l -6.8,-17.2 z m 3.4,10.1 h -6.1 l 2.4,-6.2 c 0.3,-0.6 0.5,-1.3 0.7,-2 0.3,0.9 0.5,1.5 0.7,2 z"
   id="path44"
   inkscape:connector-curvature="0"
   style="fill:#1e2324" />
		</g>
		<g
   id="g50">
			<polygon
   class="st0"
   points="446.7,317.7 446.7,334.8 447.8,334.8 447.8,326.1 456.3,334.8 458,334.8 449.4,326 457.7,317.7 456.1,317.7 447.8,326 447.8,317.7 "
   id="polygon48"
   style="fill:#1e2324" />
		</g>
		<g
   id="g54">
			<path
   class="st0"
   d="m 469.4,317.4 c -1.6,0 -3,0.3 -4.3,0.9 l 0.5,1.1 c 0.7,-0.3 1.3,-0.6 1.9,-0.7 0.6,-0.1 1.2,-0.2 1.8,-0.2 2.1,0 3.7,0.6 4.9,1.8 1.2,1.2 1.9,2.8 2,5 h -9.1 v 1.1 h 9.1 c -0.1,2.4 -0.8,4.3 -2,5.6 -1.2,1.3 -2.9,2 -5,2 -1.5,0 -3,-0.2 -4.3,-0.6 v 1.1 c 1.1,0.4 2.6,0.6 4.5,0.6 1.6,0 3,-0.4 4.2,-1.1 1.2,-0.7 2.2,-1.8 2.8,-3.2 0.6,-1.4 1,-3 1,-4.9 0,-2.6 -0.7,-4.7 -2.2,-6.2 -1.2,-1.5 -3.2,-2.3 -5.8,-2.3"
   id="path52"
   inkscape:connector-curvature="0"
   style="fill:#1e2324" />
		</g>
		<g
   id="g58">
			<polygon
   class="st0"
   points="481.5,317.7 481.5,334.8 482.7,334.8 482.7,326.1 491.2,334.8 492.8,334.8 484.2,326 492.5,317.7 491,317.7 482.7,326 482.7,317.7 "
   id="polygon56"
   style="fill:#1e2324" />
		</g>
		<g
   id="g62">
			<path
   class="st0"
   d="m 501,325.9 v 0 c 2.4,-0.6 3.6,-2 3.6,-4.2 0,-1.3 -0.5,-2.3 -1.4,-3.1 -0.9,-0.8 -2.2,-1.2 -3.8,-1.2 -2,0 -3.9,0.6 -5.4,1.8 l 0.7,0.9 c 0.8,-0.6 1.6,-1 2.4,-1.3 0.7,-0.2 1.5,-0.4 2.4,-0.4 1.2,0 2.1,0.3 2.8,0.9 0.7,0.6 1.1,1.4 1.1,2.3 0,1.2 -0.4,2 -1.2,2.7 -0.8,0.6 -2,0.9 -3.7,0.9 h -2.6 v 1.1 h 2.5 c 1.8,0 3.1,0.3 4,0.9 0.9,0.6 1.3,1.5 1.3,2.7 0,1.2 -0.5,2.2 -1.4,2.8 -0.9,0.7 -2.1,1 -3.7,1 -0.8,0 -1.5,-0.1 -2.4,-0.3 -0.8,-0.2 -1.6,-0.5 -2.4,-0.8 v 1.2 c 1.3,0.7 2.9,1 4.8,1 2,0 3.6,-0.4 4.7,-1.3 1.1,-0.9 1.7,-2.1 1.7,-3.7 -0.1,-2 -1.4,-3.4 -4,-3.9"
   id="path60"
   inkscape:connector-curvature="0"
   style="fill:#1e2324" />
		</g>
		<g
   id="g66">
			<path
   class="st0"
   d="m 513.2,317.6 -6.9,17.2 h 1.3 l 2.4,-6.1 h 7 l 2.4,6.1 h 1.4 L 514,317.6 Z m 3.4,10.1 h -6.1 l 2.4,-6.2 c 0.3,-0.6 0.5,-1.3 0.7,-2 0.3,0.9 0.5,1.5 0.7,2 z"
   id="path64"
   inkscape:connector-curvature="0"
   style="fill:#1e2324" />
		</g>
		<g
   id="g70">
			<path
   class="st0"
   d="m 531.1,332.7 v 0 l -6.2,-15.1 H 523 v 17.2 h 1.1 v -12.9 c 0,-1 0,-2 -0.1,-3 h 0.1 l 6.4,15.8 h 0.8 l 6.4,-15.8 h 0.1 c -0.1,1 -0.1,1.9 -0.1,2.8 v 13 h 1.2 v -17.2 h -1.8 z"
   id="path68"
   inkscape:connector-curvature="0"
   style="fill:#1e2324" />
		</g>
		<g
   id="g74">
			<polygon
   class="st0"
   points="543.9,334.8 553.3,334.8 553.3,333.7 545.1,333.7 545.1,326.4 552.8,326.4 552.8,325.2 545.1,325.2 545.1,318.8 553.3,318.8 553.3,317.7 543.9,317.7 "
   id="polygon72"
   style="fill:#1e2324" />
		</g>
		<g
   id="g78">
			<polygon
   class="st0"
   points="568.4,325.3 558.3,325.3 558.3,317.7 557.1,317.7 557.1,334.8 558.3,334.8 558.3,326.4 568.4,326.4 568.4,334.8 569.6,334.8 569.6,317.7 568.4,317.7 "
   id="polygon76"
   style="fill:#1e2324" />
		</g>
		<g
   id="g82">
			<path
   class="st0"
   d="m 578.9,317.6 -6.9,17.2 h 1.3 l 2.4,-6.1 h 7 l 2.4,6.1 h 1.3 l -6.8,-17.2 z m 3.4,10.1 h -6.1 l 2.4,-6.2 c 0.3,-0.6 0.5,-1.3 0.7,-2 0.3,0.9 0.5,1.5 0.7,2 z"
   id="path80"
   inkscape:connector-curvature="0"
   style="fill:#1e2324" />
		</g>
		<g
   id="g86">
			<path
   class="st0"
   d="m 596.9,332.7 v 0 l -6.2,-15.1 h -1.9 v 17.2 h 1.2 v -12.9 c 0,-1 0,-2 -0.1,-3 h 0.1 l 6.4,15.8 h 0.8 l 6.4,-15.8 h 0.1 c -0.1,1 -0.1,1.9 -0.1,2.8 v 13 h 1.2 V 317.5 H 603 Z"
   id="path84"
   inkscape:connector-curvature="0"
   style="fill:#1e2324" />
		</g>
		<g
   id="g90">
			<polygon
   class="st0"
   points="325,305.5 343.1,305.5 356.9,271.3 364.4,290 381.7,290 365.9,257.7 380.2,227.7 363.4,227.7 356.8,243.9 350.3,227.7 333.3,227.7 347.7,257.6 "
   id="polygon88"
   style="fill:#1e2324" />
		</g>
		<g
   id="g94">
			<polygon
   class="st0"
   points="480.6,290 480.6,227.7 461.7,227.7 448.2,263.1 442.9,227.7 425.1,227.7 405.5,290 422.7,290 433.4,249.4 439.7,290 450,290 466,249 464.7,290 "
   id="polygon92"
   style="fill:#1e2324" />
		</g>
		<g
   id="g98">
			<polygon
   class="st0"
   points="588.8,290 604.8,290 604.8,227.7 585.8,227.7 572.4,263.1 567,227.7 549.2,227.7 529.6,290 546.9,290 557.5,249.4 563.9,290 574.1,290 590.1,249 "
   id="polygon96"
   style="fill:#1e2324" />
		</g>
		<g
   id="g102">
			<path
   class="st0"
   d="m 508.7,290.9 c 12.9,0 22.4,-7 22.4,-19.9 v -43.1 h -17.2 v 43.2 c 0,3.3 -2.3,5.1 -5.2,5.1 -2.9,0 -5.2,-1.9 -5.2,-5.1 V 227.9 H 486.3 V 271 c 0,12.9 9.5,19.9 22.4,19.9"
   id="path100"
   inkscape:connector-curvature="0"
   style="fill:#1e2324" />
		</g>
		<g
   id="g106">
			<path
   class="st0"
   d="M 289.2,279.4 H 307 l 2.7,10.6 h 17.9 L 308.3,227.9 H 288 L 268.6,290 h 17.9 z m 7.4,-29.3 c 0.9,-3.8 1.5,-8 1.5,-8 h 0.2 c 0,0 0.5,4.2 1.5,8 l 4.3,17 h -11.7 z"
   id="path104"
   inkscape:connector-curvature="0"
   style="fill:#1e2324" />
		</g>
		<g
   id="g110">
			<rect
   x="385.70001"
   y="227.89999"
   class="st0"
   width="17.200001"
   height="62.099998"
   id="rect108"
   style="fill:#1e2324" />
		</g>
		<g
   id="g114">
			<polygon
   class="st0"
   points="323.3,295.8 189,295.8 186,305.5 318.9,305.5 "
   id="polygon112"
   style="fill:#1e2324" />
		</g>
		<g
   id="g118">
			<polygon
   class="st0"
   points="352.8,295.8 349.4,305.5 604.8,305.5 604.8,295.8 "
   id="polygon116"
   style="fill:#1e2324" />
		</g>
	</g>
</g>
<g
   id="g131"
   transform="translate(-182.16066,-181.55402)">
	<radialGradient
   id="SVGID_1_"
   cx="695.96368"
   cy="270.75839"
   r="81.882202"
   gradientUnits="userSpaceOnUse">
		<stop
   offset="0"
   style="stop-color:#FCAF47"
   id="stop124" />
		<stop
   offset="1"
   style="stop-color:#F25930"
   id="stop126" />
	</radialGradient>
	<path
   class="st1"
   d="m 772.9,235.8 c 0,-5.4 -3.8,-11.9 -8.4,-14.6 l -60.3,-34.9 c -2.3,-1.3 -5.3,-2 -8.4,-2 -3,0 -6.1,0.7 -8.4,2 l -60.2,35 c -4.6,2.7 -8.4,9.3 -8.4,14.6 l 0.1,60.8 c 0,5.4 0,0 0,9.6 0,0 3.6,-0.2 5.6,-0.5 5.9,-0.8 10.4,-0.8 10.4,-0.8 5.3,0 10,-0.1 10.4,-0.2 0.4,-0.1 0.9,-0.4 1,-0.9 0.1,-0.4 0.3,-0.9 0.3,-1.2 0,-0.2 0.2,-0.6 0.3,-0.9 0.1,-0.2 0.3,-0.8 0.5,-1.2 0.2,-0.4 0.3,-0.9 0.3,-1.1 0,-0.2 -0.1,-0.6 -0.1,-0.9 -0.1,-0.3 -0.2,-0.6 -0.2,-0.8 -0.1,-0.2 -0.2,-0.5 -0.3,-0.7 -0.1,-0.2 -0.3,-0.5 -0.4,-0.8 -0.1,-0.2 -0.2,-0.7 -0.3,-1 -0.1,-0.3 -0.2,-0.6 -0.2,-0.8 -0.1,-0.1 -0.1,-0.4 -0.1,-0.6 0,-0.2 -0.2,-0.5 -0.4,-0.8 -0.2,-0.3 -0.5,-0.4 -0.6,-0.7 0,0 0,-0.3 -0.5,0.5 -0.2,0.3 -0.6,0.2 -0.6,0.2 -3.5,-3.1 -3,-6 -3,-7.2 0,-1.2 0.5,-1.5 0.5,-1.5 0.6,-0.4 1,-0.1 1.2,-0.2 0.1,-0.1 0.4,-0.5 0.4,-0.6 -0.1,-0.2 -0.2,-0.5 -0.2,-0.7 -0.1,-0.2 -0.1,-1.5 -0.1,-2.8 0,-1.3 -0.1,-2.7 -0.2,-3 -0.1,-0.3 -0.1,-0.9 0,-1.3 0.1,-0.4 0.2,-0.9 0.2,-1.1 0,-0.2 0,-0.6 0,-0.9 0,-0.3 0,-0.7 0,-0.9 0,-0.2 0.2,-0.9 0.4,-1.6 0.2,-0.7 0.4,-1.3 0.5,-1.4 0.1,-0.1 0.2,-0.3 0.3,-0.5 0.1,-0.2 0.4,-0.8 0.6,-1.5 0.2,-0.7 0.5,-1.4 0.7,-1.7 0.1,-0.3 0.4,-1 0.6,-1.6 0.2,-0.6 0.7,-1.4 1.1,-1.7 0.4,-0.3 1,-0.7 1.2,-0.8 0.2,-0.1 0.6,-0.2 0.7,-0.3 0.2,-0.1 0.5,-0.2 0.7,-0.3 0.2,-0.1 0.5,-0.4 0.6,-0.5 0.1,-0.2 0.5,-0.5 0.8,-0.6 0.4,-0.2 0.7,-0.4 0.8,-0.5 0.1,-0.1 0.3,-0.2 0.4,-0.3 0.1,-0.1 0.5,-0.4 0.9,-0.7 v 0 0 c 0.3,-0.2 0.7,-0.5 0.9,-0.5 0.2,-0.1 0.6,-0.2 0.8,-0.2 0.2,0 0.6,-0.1 0.9,-0.2 0.3,0 0.6,-0.2 0.7,-0.3 0.1,-0.1 0.3,-0.3 0.5,-0.4 0.2,-0.1 0.7,-0.3 1.1,-0.5 0.4,-0.1 1,-0.2 1.2,-0.2 0.2,0 0.8,0.2 1.3,0.2 0.5,0.1 1.2,0.4 1.6,0.7 0.4,0.3 0.8,0.5 1.2,0.4 0.1,0 0.1,0.3 0.3,0.6 0.2,0.3 0.5,0.6 0.7,0.7 0.2,0.1 0.6,0.3 0.8,0.4 0.2,0.1 0.5,0.3 0.7,0.4 0.2,0.1 0.5,0.4 0.7,0.6 0.2,0.2 0.5,0.5 0.7,0.8 0.2,0.2 0.8,0.7 1.4,1.1 0.6,0.4 1.2,0.9 1.6,1 0.4,0.1 0.8,0.4 1,0.6 0.4,0.5 0.5,0.9 0.6,1.4 0.1,0.5 0.1,0.8 0.3,0.8 0.6,-0.1 1.1,1.2 1.7,2.3 0.5,0.8 0.9,1.5 1.2,1.9 0,1.3 0.1,2.4 0.1,3.6 0.1,2 0.2,4 0.3,4.6 0.1,0.6 0.2,1.5 0.2,2.2 0,0.6 0,1.2 0,1.3 0,0.1 0.1,0.3 0.3,0.4 0.1,0.1 0.5,0.2 0.7,0.2 0.4,0 0.5,0.2 0.6,0.3 0.1,0.1 1.1,1 1,3.2 0,0 -0.2,2 -1.6,4.2 -0.7,1.1 -1.4,1.1 -1.4,1.1 -0.5,0.1 -0.5,-0.2 -0.6,-0.3 0,-0.1 -0.2,-0.1 -0.2,-0.2 -0.1,-0.1 -0.3,-0.1 -0.4,-0.1 -0.1,0 -0.3,0.9 -0.5,1.9 -0.2,1 -0.5,2.6 -0.7,3.4 -0.1,0.9 -0.2,1.9 -0.2,2.3 0,0.4 0.1,0.9 0.3,1 0.1,0.2 0.5,0.2 0.8,0.2 0.3,0 1.2,-0.2 2.2,-0.5 1,-0.3 1.8,-0.7 2.1,-0.6 1.1,0.1 2.1,-0.3 2.9,-0.7 1.1,-0.5 1.6,-2 5.5,-2.6 0,0 2.2,-0.2 5.5,-1.4 5.1,-2.7 8.9,-6.4 9.7,-7.2 0.8,-0.9 1.1,-1.2 1.1,-1.2 0.8,-0.6 1.6,-1.6 2.2,-2.1 0.9,-0.8 1.4,-1.7 2,-2.5 0.6,-0.8 2.8,-3.8 3.7,-4.8 0.9,-1 3.4,-3.3 8.6,-10.1 0,0 0,0 2.2,-2.3 2.1,-2.2 2.9,-3.6 4.2,-4.9 1.3,-1.3 2.6,-2.4 4.1,-5 1.5,-2.6 4.5,-7.7 6.3,-11 1.8,-3.3 1.6,-4.9 1,-6.3 -0.5,-1.3 -0.7,-1.9 -0.4,-7.4 0.3,-5.5 3.5,-4.5 7.6,-5.9 4.1,-1.4 4.6,0.2 6.4,1.6 1.8,1.4 1.4,1.7 0.9,2.3 -0.5,0.6 0.6,1.5 0.6,1.5 0.7,0.6 0.7,1.4 0.5,2 0,0 -0.9,0.8 -2.3,2.5 -1.4,1.7 -1.3,1.6 -1.6,4.4 -0.3,2.8 -2,5 -3.1,6.5 -0.9,1.2 -1.1,1.6 -1.1,1.6 -0.6,1.7 -0.8,1.2 -1.5,3.8 0.3,0.1 1,0.2 1.5,0.9 0,0 0.4,0.5 0,1 -0.8,1.1 -3,4.7 -6,13.8 -3,9.1 -12.8,24.7 -22.3,36.9 -9.5,12.2 -17.3,27.5 -17.3,27.5 -0.3,4.1 -0.3,3.5 -0.7,7.9 -0.4,4.3 -0.8,11.7 -0.9,16.4 0,0 0.3,-3 -0.3,2.8 v 0 c 0,0 0,0 0,0 0,0 3.7,0.2 8,-1.9 l 60.2,-35 c 4.6,-2.7 8.4,-9.3 8.4,-14.6 z"
   id="path129"
   inkscape:connector-curvature="0"
   style="fill:url(#SVGID_1_)" />
</g>
</svg>