<svg xmlns="http://www.w3.org/2000/svg" width="988" height="1025" viewBox="0 0 988 1025">
    <defs>
        <linearGradient id="b" x1="2.906%" x2="69.19%" y1="99.162%" y2="15.496%">
            <stop offset="0%" stop-color="#FEA040"/>
            <stop offset="15.271%" stop-color="#FC9367"/>
            <stop offset="65.164%" stop-color="#B4B2FA"/>
            <stop offset="100%" stop-color="#6D7EFF"/>
        </linearGradient>
        <linearGradient id="a" x1="-1.062%" x2="4.461%" y1="103.917%" y2="29.382%">
            <stop offset="0%" stop-color="#FEA040"/>
            <stop offset="15.271%" stop-color="#FC9367"/>
            <stop offset="65.164%" stop-color="#B4B2FA"/>
            <stop offset="100%" stop-color="#6D7EFF"/>
        </linearGradient>
    </defs>
    <g fill="none" fill-rule="evenodd" transform="translate(-452 -3216)">
        <path fill="#FFF" d="M0 0h1440v4399H0z"/>
        <circle cx="964.5" cy="3728.5" r="487.5" fill="url(#b)" stroke="url(#a)" stroke-width="50" opacity=".061"/>
    </g>
</svg>
