<svg width="34" height="21" viewBox="0 0 34 21" fill="none" xmlns="http://www.w3.org/2000/svg">
<rect width="32.2784" height="18.4162" fill="black" fill-opacity="0" transform="translate(1.08887 1.10645)"/>
<path d="M33.1961 17.7383C33.157 17.6541 33.1206 17.5842 33.0867 17.5283C32.5267 16.5196 31.4565 15.2816 29.8768 13.8138L29.8434 13.7802L29.8267 13.7637L29.8098 13.7469H29.7928C29.0759 13.0634 28.6219 12.6038 28.4317 12.3686C28.0838 11.9204 28.0059 11.4667 28.196 11.007C28.3304 10.6598 28.8349 9.92631 29.7086 8.80572C30.1681 8.21185 30.5321 7.73588 30.8009 7.37728C32.7393 4.80023 33.5797 3.15346 33.3219 2.43633L33.2217 2.26874C33.1545 2.16785 32.9808 2.07555 32.701 1.99138C32.4206 1.90738 32.0622 1.89349 31.6251 1.94947L26.7851 1.9829C26.7067 1.95512 26.5948 1.95771 26.4489 1.99138C26.3032 2.02505 26.2303 2.04194 26.2303 2.04194L26.1461 2.08403L26.0792 2.13459C26.0232 2.16803 25.9616 2.22683 25.8943 2.31089C25.8274 2.39465 25.7714 2.49296 25.7266 2.60497C25.1997 3.96066 24.6006 5.22111 23.9282 6.38625C23.5136 7.08102 23.1329 7.68314 22.7852 8.19296C22.4379 8.7026 22.1466 9.07809 21.9115 9.31878C21.6761 9.55971 21.4636 9.75272 21.2727 9.89853C21.0822 10.0444 20.9367 10.106 20.836 10.0835C20.7351 10.0609 20.64 10.0386 20.55 10.0162C20.3932 9.9153 20.2672 9.77809 20.1721 9.60445C20.0766 9.4308 20.0123 9.21224 19.9787 8.94894C19.9453 8.68547 19.9255 8.45884 19.9199 8.2683C19.9146 8.07799 19.917 7.80881 19.9284 7.46152C19.9401 7.11404 19.9453 6.87894 19.9453 6.75568C19.9453 6.32986 19.9536 5.86772 19.9703 5.36915C19.9872 4.87057 20.0009 4.47554 20.0124 4.18452C20.0238 3.8932 20.0291 3.58499 20.0291 3.26007C20.0291 2.93514 20.0093 2.68032 19.9703 2.49537C19.9316 2.31065 19.8724 2.13136 19.7943 1.95753C19.7157 1.78388 19.6006 1.64956 19.4497 1.5542C19.2985 1.45896 19.1105 1.38338 18.8868 1.32722C18.2929 1.19283 17.5367 1.12014 16.6177 1.10884C14.5339 1.08647 13.1949 1.22103 12.6011 1.51235C12.3658 1.63543 12.1529 1.8036 11.9626 2.01634C11.7608 2.26292 11.7327 2.39748 11.8783 2.41961C12.5507 2.52033 13.0266 2.76126 13.3068 3.14216L13.4077 3.34401C13.4863 3.48963 13.5647 3.74746 13.6431 4.11712C13.7215 4.48678 13.772 4.89571 13.7943 5.34366C13.8502 6.16169 13.8502 6.86193 13.7943 7.44445C13.7382 8.0272 13.6852 8.48086 13.6346 8.80578C13.5841 9.13071 13.5085 9.39401 13.4077 9.59562C13.3068 9.79728 13.2396 9.92054 13.2059 9.96528C13.1723 10.01 13.1443 10.0382 13.1221 10.0493C12.9764 10.1051 12.825 10.1335 12.6682 10.1335C12.5112 10.1335 12.3209 10.055 12.0968 9.89806C11.8729 9.74113 11.6404 9.52557 11.3995 9.25103C11.1585 8.97643 10.8868 8.5927 10.5842 8.09977C10.2818 7.60685 9.96809 7.02428 9.64316 6.35205L9.37433 5.86455C9.20628 5.55092 8.97671 5.09426 8.68539 4.49497C8.3939 3.89544 8.13625 3.31552 7.91228 2.75531C7.82275 2.52003 7.68824 2.34091 7.509 2.21765L7.42489 2.16709C7.36897 2.12235 7.2792 2.07485 7.15606 2.02422C7.03274 1.97366 6.90406 1.9374 6.7695 1.91509L2.16466 1.94853C1.6941 1.94853 1.37483 2.05513 1.20671 2.26804L1.13943 2.36875C1.10582 2.42485 1.08887 2.51444 1.08887 2.63776C1.08887 2.76102 1.12248 2.9123 1.18976 3.09142C1.86198 4.67132 2.59301 6.19501 3.38284 7.66271C4.17267 9.13042 4.85902 10.3127 5.44148 11.2085C6.02405 12.1049 6.61787 12.951 7.22293 13.7462C7.82799 14.5417 8.22849 15.0516 8.42445 15.2755C8.62064 15.4999 8.77475 15.6677 8.88677 15.7797L9.30699 16.183C9.57588 16.4519 9.97074 16.774 10.4917 17.1493C11.0129 17.5248 11.5898 17.8944 12.2228 18.2589C12.8559 18.6227 13.5925 18.9196 14.4329 19.1492C15.2732 19.3791 16.091 19.4713 16.8866 19.4268H18.8193C19.2113 19.393 19.5082 19.2697 19.7101 19.057L19.7769 18.9728C19.8219 18.9059 19.864 18.802 19.9029 18.6622C19.9422 18.5222 19.9617 18.3679 19.9617 18.2001C19.9502 17.7184 19.9869 17.2843 20.0707 16.8978C20.1545 16.5114 20.25 16.2201 20.3568 16.0239C20.4635 15.8279 20.5839 15.6625 20.7179 15.5284C20.8523 15.394 20.948 15.3126 21.0041 15.2845C21.0599 15.2564 21.1045 15.2372 21.1381 15.2257C21.407 15.1362 21.7234 15.2229 22.0879 15.4865C22.4521 15.7497 22.7937 16.0749 23.1132 16.4612C23.4326 16.848 23.8162 17.2818 24.2643 17.7635C24.7127 18.2454 25.1047 18.6036 25.4407 18.8392L25.7767 19.0409C26.0011 19.1754 26.2924 19.2987 26.651 19.4107C27.0089 19.5227 27.3226 19.5507 27.5919 19.4947L31.894 19.4276C32.3195 19.4276 32.6507 19.3571 32.8855 19.2173C33.1209 19.0773 33.2607 18.923 33.3057 18.7552C33.3507 18.5872 33.3531 18.3966 33.3143 18.1835C33.2744 17.971 33.2352 17.8223 33.1961 17.7383Z" stroke="#4A4A4A"/>
</svg>
